<svg width="24" height="24" viewBox="0 0 24 24" fill="none" xmlns="http://www.w3.org/2000/svg">
<ellipse cx="12" cy="12" rx="12" ry="12" fill="url(#paint0_linear)"/>
<g filter="url(#filter0_i)">
<circle cx="12.1005" cy="12.1" r="9.6" fill="url(#paint1_linear)"/>
</g>
<path d="M8.12835 10.2166C8.21713 10.2167 8.30503 10.1991 8.38691 10.1648C8.4688 10.1304 8.54302 10.0802 8.60524 10.0168C8.73266 9.88727 8.80407 9.71281 8.80407 9.53109C8.80407 9.34936 8.73266 9.17491 8.60524 9.04534C8.54295 8.98211 8.46872 8.9319 8.38684 8.89763C8.30497 8.86335 8.21711 8.8457 8.12835 8.8457C8.0396 8.8457 7.95173 8.86335 7.86986 8.89763C7.78799 8.9319 7.71375 8.98211 7.65146 9.04534C7.52404 9.17491 7.45264 9.34936 7.45264 9.53109C7.45264 9.71281 7.52404 9.88727 7.65146 10.0168C7.71368 10.0802 7.7879 10.1304 7.86979 10.1648C7.95167 10.1991 8.03957 10.2167 8.12835 10.2166Z" fill="url(#paint2_linear)"/>
<path d="M7.68401 12.1401C7.62166 12.0769 7.54735 12.0266 7.46541 11.9924C7.38348 11.9581 7.29554 11.9404 7.20672 11.9404C7.1179 11.9404 7.02997 11.9581 6.94803 11.9924C6.86609 12.0266 6.79179 12.0769 6.72943 12.1401C6.60239 12.2699 6.53125 12.4443 6.53125 12.6259C6.53125 12.8075 6.60239 12.9819 6.72943 13.1116C6.79179 13.1749 6.86609 13.2251 6.94803 13.2594C7.02997 13.2937 7.1179 13.3113 7.20672 13.3113C7.29554 13.3113 7.38348 13.2937 7.46541 13.2594C7.54735 13.2251 7.62166 13.1749 7.68401 13.1116C7.81105 12.9819 7.88219 12.8075 7.88219 12.6259C7.88219 12.4443 7.81105 12.2699 7.68401 12.1401Z" fill="url(#paint3_linear)"/>
<path d="M14.7248 9.36494C14.8136 9.36501 14.9015 9.34738 14.9833 9.31308C15.0652 9.27877 15.1394 9.22849 15.2017 9.16516C15.3291 9.03545 15.4006 8.86087 15.4006 8.67901C15.4006 8.49715 15.3291 8.32257 15.2017 8.19286C15.1393 8.12961 15.065 8.07938 14.9831 8.0451C14.9011 8.01082 14.8132 7.99316 14.7244 7.99316C14.6356 7.99316 14.5476 8.01082 14.4657 8.0451C14.3837 8.07938 14.3094 8.12961 14.2471 8.19286C14.12 8.32277 14.0488 8.49728 14.0488 8.67901C14.0488 8.86075 14.12 9.03525 14.2471 9.16516C14.3095 9.22844 14.3839 9.27869 14.4659 9.31298C14.5479 9.34728 14.6359 9.36494 14.7248 9.36494Z" fill="url(#paint4_linear)"/>
<path d="M18.1848 10.8702C17.9557 10.5737 17.6375 10.3585 17.2769 10.2563C17.2399 9.89145 17.1362 9.53648 16.9708 9.20911C16.7946 8.85939 16.5576 8.5438 16.2708 8.27708C16.2031 7.92902 16.0224 7.61303 15.7569 7.37808C15.4861 7.1403 15.1384 7.00866 14.7781 7.00753C14.6174 7.00824 14.4579 7.03546 14.306 7.08808C14.1671 7.13402 14.0359 7.20084 13.917 7.28625C13.8791 7.28625 13.8364 7.28061 13.7953 7.28061C13.7365 7.28061 13.6825 7.28061 13.6342 7.28061C13.54 7.28061 13.4449 7.28061 13.3466 7.28947C13.2725 7.29592 13.1984 7.30155 13.1243 7.31042C12.9331 7.06345 12.6871 6.86434 12.4057 6.72881C12.0963 6.57745 11.7562 6.49918 11.4117 6.50003C11.0299 6.49811 10.654 6.59437 10.3202 6.77956C10.0141 6.94545 9.7579 7.19021 9.57824 7.48844C8.68714 7.53432 7.84042 7.89154 7.18574 8.4978C6.87207 8.78442 6.62088 9.13266 6.4479 9.52076C6.27492 9.90886 6.18386 10.3285 6.18041 10.7534C6.18041 10.8339 6.18041 10.9193 6.18927 11.0023C6.19491 11.0619 6.20055 11.1215 6.20941 11.1803C5.85462 11.4213 5.61003 11.7934 5.52937 12.2146C5.44871 12.6359 5.53858 13.0719 5.77924 13.427C5.94146 13.6667 6.16785 13.856 6.43255 13.9732C6.42611 14.0086 6.42047 14.044 6.41724 14.0827C6.40789 14.1497 6.40305 14.2173 6.40274 14.2849C6.40262 14.7 6.56178 15.0994 6.84741 15.4006C6.98702 15.5455 7.15462 15.6606 7.34003 15.7389C7.52544 15.8171 7.72481 15.8569 7.92605 15.8557C8.00453 15.8559 8.08291 15.85 8.16047 15.838C8.21363 15.8292 8.2668 15.8171 8.32158 15.8026C8.47398 15.9893 8.66389 16.1418 8.87902 16.2505C9.09528 16.3613 9.33369 16.4222 9.57663 16.4285C9.60322 16.4583 9.6298 16.4881 9.65719 16.5179C10.2461 17.1131 11.0409 17.4599 11.8778 17.4869C12.7147 17.5139 13.5302 17.219 14.1562 16.6629C14.2156 16.6691 14.2753 16.672 14.335 16.6718C14.6542 16.6722 14.9669 16.5816 15.2365 16.4108C15.4914 16.2482 15.7009 16.0237 15.8455 15.7583H15.8511C16.0536 15.7584 16.254 15.7171 16.4399 15.6369C16.6258 15.5567 16.7933 15.4392 16.9322 15.2919C17.2194 14.9916 17.379 14.5917 17.3776 14.1762C17.3773 14.0817 17.3692 13.9874 17.3535 13.8942C17.3438 13.8398 17.3309 13.786 17.3148 13.7331C17.6605 13.6264 17.9645 13.415 18.1848 13.1281C18.433 12.8046 18.5676 12.4082 18.5676 12.0004C18.5676 11.5925 18.433 11.1961 18.1848 10.8726V10.8702ZM13.7663 11.4018V11.5629C13.7654 11.5966 13.7579 11.6298 13.744 11.6605C13.7302 11.6912 13.7104 11.7188 13.6858 11.7418C13.6355 11.7879 13.5695 11.8132 13.5013 11.8127H13.3772C13.3959 11.751 13.4057 11.687 13.4062 11.6226V10.4948H13.5013C13.5699 10.4953 13.6358 10.5218 13.6858 10.5689C13.7106 10.591 13.7305 10.6181 13.7444 10.6483C13.7582 10.6785 13.7657 10.7113 13.7663 10.7445V11.4034V11.4018ZM10.0567 11.4252V10.7429C10.0569 10.7099 10.0637 10.6774 10.0769 10.6472C10.09 10.617 10.1092 10.5898 10.1333 10.5673C10.1832 10.5202 10.2491 10.4937 10.3177 10.4932H10.383V11.6209C10.3838 11.6854 10.3938 11.7494 10.4128 11.811H10.3177C10.2495 11.8116 10.1836 11.7863 10.1333 11.7402C10.0852 11.6929 10.0577 11.6287 10.0567 11.5613V11.4252ZM14.0612 8.00964C14.1477 7.92112 14.2511 7.85079 14.3652 7.80278C14.4794 7.75476 14.6019 7.73003 14.7257 7.73003C14.8496 7.73003 14.9721 7.75476 15.0862 7.80278C15.2004 7.85079 15.3038 7.92112 15.3903 8.00964C15.5664 8.18825 15.6652 8.42902 15.6652 8.67986C15.6652 8.9307 15.5664 9.17146 15.3903 9.35008C15.3036 9.4383 15.2001 9.50836 15.086 9.55619C14.9719 9.60402 14.8495 9.62865 14.7257 9.62865C14.602 9.62865 14.4795 9.60402 14.3654 9.55619C14.2513 9.50836 14.1479 9.4383 14.0612 9.35008C13.885 9.17146 13.7863 8.9307 13.7863 8.67986C13.7863 8.42902 13.885 8.18825 14.0612 8.00964ZM7.46527 8.8595C7.55184 8.77098 7.65523 8.70065 7.76935 8.65264C7.88348 8.60462 8.00604 8.57989 8.12985 8.57989C8.25367 8.57989 8.37623 8.60462 8.49036 8.65264C8.60448 8.70065 8.70786 8.77098 8.79444 8.8595C8.97056 9.03811 9.06929 9.27888 9.06929 9.52972C9.06929 9.78056 8.97056 10.0213 8.79444 10.1999C8.70786 10.2885 8.60448 10.3588 8.49036 10.4068C8.37623 10.4548 8.25367 10.4795 8.12985 10.4795C8.00604 10.4795 7.88348 10.4548 7.76935 10.4068C7.65523 10.3588 7.55184 10.2885 7.46527 10.1999C7.28915 10.0213 7.19042 9.78056 7.19042 9.52972C7.19042 9.27888 7.28915 9.03811 7.46527 8.8595ZM6.54372 13.2965C6.3676 13.1179 6.26886 12.8771 6.26886 12.6263C6.26886 12.3754 6.3676 12.1347 6.54372 11.956C6.63036 11.8675 6.73381 11.7972 6.848 11.7491C6.96219 11.7011 7.08482 11.6764 7.2087 11.6764C7.33258 11.6764 7.45521 11.7011 7.5694 11.7491C7.68359 11.7972 7.78705 11.8675 7.87369 11.956C8.04981 12.1347 8.14854 12.3754 8.14854 12.6263C8.14854 12.8771 8.04981 13.1179 7.87369 13.2965C7.78688 13.3847 7.68337 13.4548 7.5692 13.5027C7.45504 13.5505 7.33249 13.5751 7.2087 13.5751C7.08492 13.5751 6.96237 13.5505 6.8482 13.5027C6.73403 13.4548 6.63053 13.3847 6.54372 13.2965ZM13.8904 16.6065C13.3832 17.0098 12.7612 17.2417 12.1138 17.2689C11.4665 17.2961 10.8272 17.1172 10.2879 16.758C10.1343 16.6568 9.99029 16.5416 9.85777 16.414C9.84005 16.3987 9.82474 16.3842 9.80702 16.3665C9.47754 16.0358 9.2272 15.6348 9.07477 15.1936C9.08283 15.1863 9.0933 15.1807 9.10135 15.1726C9.29439 14.9775 9.40266 14.7141 9.40266 14.4396C9.40266 14.1651 9.29439 13.9017 9.10135 13.7065C9.04142 13.647 8.97463 13.5948 8.90238 13.551V12.8671C8.90474 12.7333 8.92562 12.6005 8.96441 12.4724C9.15594 12.4384 9.33231 12.3461 9.46949 12.2082C9.64479 12.0311 9.74419 11.7927 9.7466 11.5436C9.77722 11.5291 9.8046 11.509 9.83683 11.4969V11.5645C9.8373 11.6249 9.84987 11.6845 9.87381 11.7398C9.89775 11.7952 9.93257 11.8451 9.97619 11.8868C10.0677 11.9729 10.1889 12.0205 10.3145 12.0197H10.5336C10.5433 12.0294 10.5489 12.0382 10.5578 12.0471C10.6136 12.1047 10.6803 12.1506 10.754 12.1821C10.8277 12.2137 10.907 12.2302 10.9872 12.2307H12.8013C12.9618 12.2304 13.1157 12.1664 13.229 12.0527C13.2379 12.0439 13.2443 12.035 13.2532 12.0253H13.5021C13.6278 12.0261 13.7489 11.9785 13.8404 11.8924C13.8856 11.8508 13.9216 11.8002 13.9461 11.7439C13.9707 11.6876 13.9832 11.6268 13.983 11.5654V11.4429L14.0128 11.4534C13.981 11.6183 13.9902 11.7885 14.0395 11.949C14.0888 12.1095 14.1767 12.2555 14.2956 12.3741C14.3902 12.4704 14.503 12.5469 14.6275 12.5992C14.752 12.6515 14.8856 12.6785 15.0206 12.6786C15.0286 12.6786 15.0359 12.6786 15.0447 12.6786C15.0552 12.7421 15.0617 12.8061 15.0641 12.8704V13.5406C14.9683 13.5898 14.8805 13.6534 14.8039 13.7291C14.6118 13.9249 14.5041 14.1882 14.5041 14.4625C14.5041 14.7368 14.6118 15.0002 14.8039 15.196C14.8248 15.2169 14.8482 15.2347 14.8707 15.254C14.7168 15.673 14.4739 16.0536 14.1586 16.3697C14.073 16.4541 13.9824 16.5332 13.8872 16.6065H13.8904ZM17.554 12.8132C17.4672 12.9014 17.3637 12.9715 17.2496 13.0193C17.1354 13.0672 17.0128 13.0918 16.8891 13.0918C16.7653 13.0918 16.6427 13.0672 16.5286 13.0193C16.4144 12.9715 16.3109 12.9014 16.2241 12.8132C16.048 12.6345 15.9492 12.3938 15.9492 12.1429C15.9492 11.8921 16.048 11.6513 16.2241 11.4727C16.3107 11.3842 16.4142 11.3138 16.5284 11.2658C16.6426 11.2178 16.7652 11.193 16.8891 11.193C17.0129 11.193 17.1356 11.2178 17.2498 11.2658C17.364 11.3138 17.4674 11.3842 17.554 11.4727C17.7296 11.6516 17.8279 11.8923 17.8279 12.1429C17.8279 12.3936 17.7296 12.6342 17.554 12.8132Z" fill="url(#paint5_linear)"/>
<path d="M16.8875 11.4561C16.7988 11.456 16.7109 11.4737 16.629 11.508C16.5471 11.5423 16.4729 11.5925 16.4107 11.6558C16.2836 11.7857 16.2124 11.9603 16.2124 12.142C16.2124 12.3237 16.2836 12.4982 16.4107 12.6281C16.473 12.6914 16.5473 12.7416 16.6293 12.7759C16.7112 12.8102 16.7991 12.8278 16.8879 12.8278C16.9768 12.8278 17.0647 12.8102 17.1466 12.7759C17.2286 12.7416 17.3029 12.6914 17.3652 12.6281C17.4923 12.4982 17.5635 12.3237 17.5635 12.142C17.5635 11.9603 17.4923 11.7857 17.3652 11.6558C17.3029 11.5925 17.2285 11.5422 17.1465 11.5079C17.0645 11.4736 16.9764 11.456 16.8875 11.4561Z" fill="url(#paint6_linear)"/>
<path fill-rule="evenodd" clip-rule="evenodd" d="M12.6061 13.4676C12.5494 13.4724 12.4954 13.4937 12.4505 13.5287C12.4057 13.5638 12.372 13.6111 12.3536 13.665C12.3352 13.7189 12.3329 13.7769 12.347 13.8321C12.361 13.8872 12.3908 13.9371 12.4327 13.9756C12.4746 14.0141 12.5268 14.0396 12.583 14.049C12.6391 14.0583 12.6968 14.0511 12.7489 14.0282C12.801 14.0054 12.8454 13.9678 12.8765 13.9202C12.9077 13.8726 12.9243 13.8169 12.9243 13.76C12.9227 13.7199 12.9131 13.6805 12.8962 13.6441C12.8793 13.6077 12.8554 13.575 12.8259 13.5478C12.7963 13.5206 12.7617 13.4996 12.724 13.4858C12.6863 13.472 12.6462 13.4658 12.6061 13.4676ZM12.59 13.9799C12.5717 13.9783 12.5541 13.9715 12.5396 13.9601C12.5251 13.9488 12.5141 13.9334 12.5082 13.916C12.5022 13.8985 12.5014 13.8797 12.5059 13.8618C12.5105 13.844 12.5201 13.8278 12.5337 13.8153C12.5472 13.8028 12.5641 13.7945 12.5823 13.7914C12.6005 13.7884 12.6192 13.7907 12.6361 13.7981C12.653 13.8054 12.6674 13.8176 12.6775 13.833C12.6876 13.8484 12.6931 13.8664 12.6931 13.8848C12.6919 13.911 12.6804 13.9357 12.6611 13.9535C12.6418 13.9713 12.6163 13.9808 12.59 13.9799Z" fill="url(#paint7_linear)"/>
<path fill-rule="evenodd" clip-rule="evenodd" d="M12.3233 12.9902L13.6283 12.8105C13.6536 12.807 13.6794 12.8134 13.7001 12.8284C13.7208 12.8434 13.7349 12.8659 13.7394 12.8911C13.7429 12.9171 13.736 12.9435 13.7201 12.9644C13.7043 12.9854 13.6809 12.9992 13.6549 13.003L12.3507 13.1819C12.3246 13.1853 12.2983 13.1784 12.2773 13.1626C12.2564 13.1467 12.2425 13.1233 12.2387 13.0973C12.2364 13.072 12.2439 13.0468 12.2596 13.0268C12.2753 13.0069 12.2981 12.9938 12.3233 12.9902Z" fill="url(#paint8_linear)"/>
<path fill-rule="evenodd" clip-rule="evenodd" d="M11.5577 12.9902L10.2527 12.8105C10.2273 12.807 10.2016 12.8134 10.1809 12.8284C10.1601 12.8434 10.146 12.8659 10.1415 12.8911C10.138 12.9171 10.145 12.9435 10.1608 12.9644C10.1766 12.9854 10.2001 12.9992 10.2261 13.003L11.5303 13.1819C11.5563 13.1853 11.5827 13.1784 11.6036 13.1626C11.6246 13.1467 11.6385 13.1233 11.6422 13.0973C11.6446 13.072 11.6371 13.0468 11.6213 13.0268C11.6056 13.0069 11.5828 12.9938 11.5577 12.9902Z" fill="url(#paint9_linear)"/>
<path d="M11.2862 15.0649H12.8482C12.8762 15.0649 12.903 15.0761 12.9228 15.0958C12.9426 15.1156 12.9537 15.1425 12.9537 15.1705C12.9536 15.3245 12.923 15.477 12.8639 15.6193C12.8047 15.7615 12.7181 15.8907 12.6089 15.9994C12.5002 16.1085 12.371 16.1952 12.2288 16.2543C12.0866 16.3135 11.934 16.344 11.78 16.3442H11.2862C11.2723 16.3442 11.2586 16.3414 11.2458 16.3361C11.233 16.3308 11.2214 16.3231 11.2116 16.3133C11.2018 16.3035 11.194 16.2918 11.1887 16.279C11.1834 16.2662 11.1807 16.2525 11.1807 16.2386V15.1705C11.1807 15.1566 11.1834 15.1429 11.1887 15.1301C11.194 15.1173 11.2018 15.1056 11.2116 15.0958C11.2214 15.0861 11.233 15.0783 11.2458 15.073C11.2586 15.0677 11.2723 15.0649 11.2862 15.0649ZM12.7362 15.276H11.3893V16.1339H11.7776C12.0326 16.133 12.277 16.0314 12.4575 15.8512C12.6122 15.6966 12.7098 15.4941 12.7346 15.2768L12.7362 15.276Z" fill="url(#paint10_linear)"/>
<path fill-rule="evenodd" clip-rule="evenodd" d="M11.3164 13.4162C11.2597 13.4209 11.2055 13.4421 11.1605 13.477C11.1156 13.512 11.0818 13.5593 11.0633 13.6132C11.0448 13.667 11.0423 13.7251 11.0563 13.7803C11.0703 13.8356 11.1 13.8855 11.1419 13.9241C11.1838 13.9627 11.236 13.9883 11.2922 13.9977C11.3484 14.0071 11.4061 13.9999 11.4582 13.977C11.5104 13.9542 11.5548 13.9166 11.586 13.869C11.6171 13.8213 11.6338 13.7656 11.6338 13.7087C11.6302 13.6279 11.5949 13.5518 11.5354 13.497C11.4759 13.4422 11.3972 13.4132 11.3164 13.4162ZM11.3043 13.9278C11.286 13.926 11.2686 13.919 11.2542 13.9076C11.2397 13.8962 11.2289 13.8808 11.2231 13.8634C11.2172 13.8459 11.2166 13.8271 11.2212 13.8093C11.2258 13.7915 11.2355 13.7754 11.249 13.763C11.2626 13.7506 11.2795 13.7423 11.2977 13.7393C11.3158 13.7363 11.3345 13.7387 11.3513 13.746C11.3682 13.7534 11.3825 13.7656 11.3926 13.7809C11.4028 13.7963 11.4082 13.8143 11.4083 13.8327C11.4072 13.8584 11.3962 13.8827 11.3776 13.9005C11.3589 13.9182 11.3341 13.928 11.3084 13.9278H11.3043Z" fill="url(#paint11_linear)"/>
<path d="M10.1508 15.6771C10.4889 15.6771 10.763 15.403 10.763 15.0649C10.763 14.7267 10.4889 14.4526 10.1508 14.4526C9.81268 14.4526 9.53857 14.7267 9.53857 15.0649C9.53857 15.403 9.81268 15.6771 10.1508 15.6771Z" fill="url(#paint12_linear)"/>
<path d="M13.7865 15.6771C14.1247 15.6771 14.3988 15.403 14.3988 15.0649C14.3988 14.7267 14.1247 14.4526 13.7865 14.4526C13.4484 14.4526 13.1743 14.7267 13.1743 15.0649C13.1743 15.403 13.4484 15.6771 13.7865 15.6771Z" fill="url(#paint13_linear)"/>
<path fill-rule="evenodd" clip-rule="evenodd" d="M2.23364 18.974L14.5805 0.277344C15.9273 0.572542 17.1895 1.09396 18.3251 1.79976L5.10355 21.821C3.99405 21.0406 3.02275 20.0769 2.23364 18.974Z" fill="white" fill-opacity="0.2"/>
<path fill-rule="evenodd" clip-rule="evenodd" d="M6.34717 22.5889L19.5167 2.64648C20.296 3.27358 20.9954 3.99607 21.597 4.79623L9.14097 23.6583C8.15648 23.4177 7.21961 23.0556 6.34717 22.5889Z" fill="white" fill-opacity="0.2"/>
<defs>
<filter id="filter0_i" x="2.50049" y="2.5" width="19.2" height="19.2" filterUnits="userSpaceOnUse" color-interpolation-filters="sRGB">
<feFlood flood-opacity="0" result="BackgroundImageFix"/>
<feBlend mode="normal" in="SourceGraphic" in2="BackgroundImageFix" result="shape"/>
<feColorMatrix in="SourceAlpha" type="matrix" values="0 0 0 0 0 0 0 0 0 0 0 0 0 0 0 0 0 0 127 0" result="hardAlpha"/>
<feOffset dx="-4" dy="-5"/>
<feComposite in2="hardAlpha" operator="arithmetic" k2="-1" k3="1"/>
<feColorMatrix type="matrix" values="0 0 0 0 0.923307 0 0 0 0 0.750798 0 0 0 0 0.289435 0 0 0 0.23 0"/>
<feBlend mode="normal" in2="shape" result="effect1_innerShadow"/>
</filter>
<linearGradient id="paint0_linear" x1="12" y1="37.8" x2="12" y2="-10.2" gradientUnits="userSpaceOnUse">
<stop stop-color="#ECAC00"/>
<stop offset="1" stop-color="#FFE9B0"/>
</linearGradient>
<linearGradient id="paint1_linear" x1="12.1005" y1="43.75" x2="12.1005" y2="2.5" gradientUnits="userSpaceOnUse">
<stop stop-color="#F8B500"/>
<stop offset="1" stop-color="#FCEABB"/>
</linearGradient>
<linearGradient id="paint2_linear" x1="8.12835" y1="8.8457" x2="8.12835" y2="10.2166" gradientUnits="userSpaceOnUse">
<stop stop-color="#E99620"/>
<stop offset="1" stop-color="#ECB719"/>
</linearGradient>
<linearGradient id="paint3_linear" x1="7.20672" y1="11.9404" x2="7.20672" y2="13.3113" gradientUnits="userSpaceOnUse">
<stop stop-color="#E99620"/>
<stop offset="1" stop-color="#ECB719"/>
</linearGradient>
<linearGradient id="paint4_linear" x1="14.7247" y1="7.99316" x2="14.7247" y2="9.36494" gradientUnits="userSpaceOnUse">
<stop stop-color="#E99620"/>
<stop offset="1" stop-color="#ECB719"/>
</linearGradient>
<linearGradient id="paint5_linear" x1="12.034" y1="6.5" x2="12.034" y2="17.4886" gradientUnits="userSpaceOnUse">
<stop stop-color="#E99620"/>
<stop offset="1" stop-color="#ECB719"/>
</linearGradient>
<linearGradient id="paint6_linear" x1="16.8879" y1="11.4561" x2="16.8879" y2="12.8278" gradientUnits="userSpaceOnUse">
<stop stop-color="#E99620"/>
<stop offset="1" stop-color="#ECB719"/>
</linearGradient>
<linearGradient id="paint7_linear" x1="12.6311" y1="13.4673" x2="12.6311" y2="14.0529" gradientUnits="userSpaceOnUse">
<stop stop-color="#E99620"/>
<stop offset="1" stop-color="#ECB719"/>
</linearGradient>
<linearGradient id="paint8_linear" x1="12.9893" y1="12.8096" x2="12.9893" y2="13.1827" gradientUnits="userSpaceOnUse">
<stop stop-color="#E99620"/>
<stop offset="1" stop-color="#ECB719"/>
</linearGradient>
<linearGradient id="paint9_linear" x1="10.8916" y1="12.8096" x2="10.8916" y2="13.1827" gradientUnits="userSpaceOnUse">
<stop stop-color="#E99620"/>
<stop offset="1" stop-color="#ECB719"/>
</linearGradient>
<linearGradient id="paint10_linear" x1="12.0672" y1="15.0649" x2="12.0672" y2="16.3442" gradientUnits="userSpaceOnUse">
<stop stop-color="#E99620"/>
<stop offset="1" stop-color="#ECB719"/>
</linearGradient>
<linearGradient id="paint11_linear" x1="11.3406" y1="13.416" x2="11.3406" y2="14.0017" gradientUnits="userSpaceOnUse">
<stop stop-color="#E99620"/>
<stop offset="1" stop-color="#ECB719"/>
</linearGradient>
<linearGradient id="paint12_linear" x1="10.1508" y1="14.4526" x2="10.1508" y2="15.6771" gradientUnits="userSpaceOnUse">
<stop stop-color="#E99620"/>
<stop offset="1" stop-color="#ECB719"/>
</linearGradient>
<linearGradient id="paint13_linear" x1="13.7865" y1="14.4526" x2="13.7865" y2="15.6771" gradientUnits="userSpaceOnUse">
<stop stop-color="#E99620"/>
<stop offset="1" stop-color="#ECB719"/>
</linearGradient>
</defs>
</svg>
