<svg width="423" height="86" viewBox="0 0 423 86" fill="none" xmlns="http://www.w3.org/2000/svg">
<path opacity="0.1" d="M177.828 66.1044C101.793 43.4872 85.2313 17.5277 0 26.0411V8C0 3.58172 3.58173 0 8.00001 0H423C417.213 21.0332 402.481 40.9337 380.91 56.0886C349.618 78.0738 309.884 105.385 177.828 66.1044Z" fill="white"/>
</svg>
