<svg width="423" height="90" viewBox="0 0 423 90" fill="none" xmlns="http://www.w3.org/2000/svg">
<path opacity="0.1" d="M0 3.09393V90H423V10.6293C395.116 27.2067 339.347 46.7983 308.832 46.7983C271.311 46.7983 245.141 45.6549 138.896 16.6573C86.8097 2.44159 56.8209 -4.44113 0 3.09393Z" fill="white"/>
</svg>
