<svg width="52" height="52" viewBox="0 0 52 52" fill="none" xmlns="http://www.w3.org/2000/svg">
<circle cx="26" cy="26" r="26" fill="#E8E8E8"/>
<path fill-rule="evenodd" clip-rule="evenodd" d="M10.7432 30.6764C10.0202 30.3867 9.39117 29.8983 8.92687 29.266C8.46257 28.6336 8.18139 27.8826 8.11492 27.0971C8.04845 26.3116 8.19933 25.5229 8.5506 24.8196C8.90188 24.1164 9.43962 23.5264 10.1034 23.116C10.0287 22.6697 9.99102 22.2179 9.99085 21.7652C9.99085 16.9876 14.1303 13.0854 19.3412 12.8321C19.845 11.9652 20.5679 11.2505 21.4351 10.7615C22.3024 10.2726 23.2826 10.0273 24.2746 10.0509C25.1738 10.0349 26.0637 10.2365 26.8707 10.6389C27.6777 11.0413 28.3785 11.6329 28.9151 12.3647C29.4295 12.2916 29.9482 12.255 30.4676 12.2552C30.7605 12.2552 31.0504 12.2667 31.3371 12.2896C32.0033 11.7803 32.8154 11.5058 33.6497 11.5079C34.5938 11.5232 35.5021 11.8769 36.2135 12.5065C36.925 13.1361 37.3936 14.0008 37.5363 14.9474C39.1576 16.4026 40.1613 18.4372 40.3375 20.6255C41.3562 20.8988 42.2573 21.5058 42.9006 22.3521C43.5439 23.1984 43.8934 24.2366 43.8946 25.3052C43.8959 26.3737 43.5488 27.4128 42.9074 28.2606C42.2661 29.1085 41.3664 29.7176 40.3483 29.9933C40.5153 30.4636 40.6003 30.9598 40.5996 31.4597C40.6207 32.5428 40.2168 33.5901 39.4767 34.3713C38.7366 35.1526 37.7209 35.6039 36.6529 35.6261C36.5881 35.6261 36.5239 35.6261 36.4602 35.6261C36.0925 36.3952 35.5202 37.0448 34.8079 37.5017C34.0955 37.9586 33.2715 38.2046 32.4286 38.2119C31.1995 38.1865 30.0305 37.6671 29.1789 36.7679C28.3272 35.8688 27.8624 34.6635 27.8868 33.417C27.8819 32.1791 28.341 30.9854 29.171 30.0777C27.9516 29.9353 26.7656 29.5804 25.6652 29.0287C24.8931 29.5311 24.0584 29.927 23.1831 30.2059C23.6317 30.9705 23.8672 31.8442 23.8645 32.7338C23.8889 33.9803 23.4242 35.1856 22.5725 36.0847C21.7208 36.9839 20.5519 37.5033 19.3227 37.5287C18.6312 37.5257 17.9499 37.36 17.3322 37.0448C16.7145 36.7296 16.1774 36.2734 15.7629 35.7121C15.3761 35.8425 14.9711 35.909 14.5635 35.909C13.4954 35.8869 12.4797 35.4356 11.7397 34.6543C10.9996 33.8731 10.5957 32.8258 10.6168 31.7427C10.6167 31.3853 10.6602 31.0293 10.7463 30.6827L10.7432 30.6764Z" fill="#949494"/>
<path fill-rule="evenodd" clip-rule="evenodd" d="M9.43502 29.8993C9.00962 29.4951 8.67137 29.006 8.44159 28.4628C8.21181 27.9195 8.09547 27.3339 8.09992 26.7428C8.09125 26.0195 8.26607 25.306 8.60758 24.6708C8.94909 24.0357 9.44584 23.5002 10.0502 23.1158C9.97736 22.6693 9.94075 22.2176 9.9407 21.7651C10.0409 19.3767 11.0414 17.1184 12.7356 15.4562C14.4299 13.794 16.6886 12.8546 19.0459 12.8319C19.5349 11.982 20.2358 11.2776 21.0782 10.7894C21.9206 10.3012 22.8749 10.0464 23.8452 10.0507C24.7441 10.0194 25.6372 10.2086 26.4486 10.6021C27.2599 10.9957 27.9656 11.582 28.5058 12.3113C27.9706 11.7932 27.3367 11.3914 26.6429 11.1307C25.9491 10.8699 25.2101 10.7556 24.4712 10.7949C23.5055 10.8136 22.5599 11.0781 21.7213 11.5641C20.8827 12.05 20.178 12.7419 19.6719 13.5761C17.3146 13.5988 15.0558 14.5381 13.3615 16.2003C11.6673 17.8626 10.6669 20.1208 10.5666 22.5092C10.5666 22.9617 10.6032 23.4135 10.6761 23.86C10.0718 24.2444 9.57502 24.7799 9.23351 25.415C8.89199 26.0502 8.71718 26.7636 8.72584 27.487C8.72231 28.3444 8.96907 29.1838 9.43502 29.8993ZM28.7247 12.6115C29.2149 12.5396 29.477 12.2566 29.8763 12.2566C30.2756 12.2566 30.4437 12.2691 30.7227 12.291C31.3663 11.7836 32.1584 11.5085 32.9736 11.5093C33.5982 11.5157 34.2114 11.6794 34.7582 11.9855C35.305 12.2917 35.7682 12.7308 36.1063 13.2634C35.4707 12.655 34.6409 12.2981 33.7678 12.2577C32.8947 12.2172 32.0363 12.4959 31.3486 13.043C31.0701 13.0201 30.788 13.0086 30.5023 13.0086C29.9967 13.0084 29.4918 13.045 28.9914 13.118C28.9154 12.945 28.8262 12.7783 28.7247 12.6193V12.6115ZM40.053 20.802C40.8884 21.1365 41.605 21.7183 42.1096 22.4717C41.5511 21.9288 40.8589 21.5481 40.1055 21.3695C40.0921 21.1788 40.0726 20.9896 40.0469 20.802H40.053ZM28.8465 36.9939C28.3726 36.5297 27.9966 35.9727 27.7414 35.3568C27.4862 34.7408 27.3571 34.0787 27.3618 33.4106C27.3584 32.4222 27.6438 31.455 28.182 30.6309C28.5306 30.7114 28.8831 30.7735 29.2381 30.817C28.5057 31.6563 28.0697 32.719 27.9988 33.8374C27.9279 34.9558 28.2261 36.0663 28.8465 36.9939ZM11.8879 34.8927C11.4625 34.4886 11.1242 33.9995 10.8944 33.4562C10.6646 32.913 10.5483 32.3273 10.5528 31.7362C10.5525 31.5117 10.569 31.2875 10.6021 31.0656C10.8229 31.2091 11.058 31.3286 11.3036 31.422C11.2201 31.769 11.1782 32.1248 11.1787 32.482C11.1752 33.3394 11.422 34.1787 11.8879 34.8943V34.8927Z" fill="#DADADA"/>
<path d="M10.4033 30.8576C9.66306 30.5267 9.03023 29.9901 8.57796 29.3099C8.10874 28.6047 7.8412 27.7816 7.80501 26.9317C7.76882 26.0818 7.96538 25.2383 8.37292 24.4947C8.71309 23.8767 9.19478 23.3507 9.7774 22.9611C9.75376 22.7943 9.73475 22.6275 9.72036 22.4608C9.70032 22.2278 9.69107 21.9918 9.69107 21.7588C9.70272 20.5595 9.95803 19.3755 10.4411 18.2808C10.9241 17.186 11.6245 16.2039 12.4985 15.3959C14.3258 13.6867 16.6839 12.6777 19.1663 12.5427C19.6666 11.702 20.3779 11.011 21.2276 10.5401C22.1158 10.0477 23.1072 9.77756 24.1192 9.752C25.1312 9.72644 26.1345 9.94623 27.0459 10.3931C27.831 10.7779 28.5171 11.3426 29.0501 12.0425C29.2557 12.0164 29.4612 11.9961 29.6668 11.9815C29.935 11.9648 30.2028 11.9565 30.47 11.9565C30.6041 11.9565 30.7537 11.9565 30.9186 11.9658L31.2532 11.983C31.5872 11.7416 31.9545 11.5515 32.3432 11.4187C33.0285 11.1848 33.7625 11.1384 34.4712 11.2841C35.1798 11.4299 35.838 11.7627 36.3793 12.2488C37.1224 12.9107 37.6259 13.8055 37.81 14.7909C38.6107 15.5448 39.2717 16.438 39.7618 17.4283C40.2206 18.3538 40.5075 19.3569 40.6082 20.3877C41.6138 20.672 42.5015 21.2792 43.1381 22.1184C43.8273 23.0326 44.2008 24.1514 44.2008 25.3022C44.2008 26.453 43.8273 27.5718 43.1381 28.486C42.5254 29.2972 41.6781 29.8941 40.7145 30.1932C40.7576 30.3476 40.7925 30.5041 40.8194 30.6622C40.8645 30.9255 40.8872 31.1923 40.8872 31.4595C40.8936 32.6324 40.4515 33.762 39.6539 34.6113C39.2671 35.0246 38.8017 35.3539 38.2857 35.5794C37.7698 35.8049 37.214 35.9218 36.6522 35.923H36.6368C36.2345 36.6726 35.6509 37.3063 34.9409 37.7646C34.1907 38.2483 33.3201 38.5054 32.431 38.5057C31.7904 38.5042 31.1567 38.3708 30.5684 38.1136C29.9801 37.8564 29.4494 37.4808 29.0085 37.0095C28.0967 36.0413 27.59 34.7526 27.5947 33.4138C27.5944 32.7613 27.7141 32.1144 27.9478 31.5064C28.1138 31.0741 28.3368 30.6665 28.6107 30.2948C28.1624 30.2183 27.7191 30.1139 27.2833 29.9822C26.7354 29.8169 26.2014 29.6078 25.6861 29.3568C25.3347 29.578 24.9708 29.7779 24.5962 29.9556C24.2755 30.1077 23.9476 30.2438 23.6126 30.3636C23.7657 30.672 23.8881 30.9952 23.9779 31.3282C24.1005 31.7821 24.1627 32.2506 24.1629 32.7212C24.1677 34.06 23.661 35.3487 22.7492 36.3169C22.3083 36.7883 21.7776 37.164 21.1893 37.4211C20.601 37.6783 19.9673 37.8117 19.3266 37.8131C18.5925 37.8166 17.8678 37.6447 17.2114 37.3112C16.6116 37.0036 16.081 36.5735 15.6528 36.048C15.2965 36.1498 14.9283 36.2024 14.5582 36.2044C13.9964 36.2032 13.4406 36.0863 12.9247 35.8608C12.4087 35.6353 11.9432 35.306 11.5565 34.8927C10.7589 34.0434 10.3168 32.9138 10.3232 31.741C10.3235 31.5502 10.3353 31.3596 10.3586 31.1703C10.371 31.0661 10.3869 30.9619 10.4064 30.8576H10.4033ZM9.06822 28.9816C9.50038 29.627 10.1209 30.119 10.8427 30.3886L11.0909 30.4809L11.0262 30.7404C10.946 31.0634 10.9056 31.3953 10.9059 31.7284C10.9024 32.7492 11.2892 33.7315 11.9851 34.469C12.3826 34.8949 12.8764 35.2162 13.4239 35.4049C13.9714 35.5937 14.556 35.6444 15.1271 35.5525C15.3111 35.5239 15.4925 35.4805 15.6698 35.4227L15.8686 35.3555L15.995 35.5243C16.3903 36.0497 16.8979 36.4774 17.4797 36.775C18.0511 37.0669 18.6822 37.2184 19.322 37.2174C19.8836 37.2161 20.4391 37.0992 20.9548 36.8737C21.4705 36.6482 21.9357 36.3189 22.3222 35.9058C23.1282 35.0477 23.5752 33.9063 23.5694 32.7212C23.5725 32.3039 23.5206 31.888 23.4152 31.4846C23.3074 31.085 23.1466 30.7022 22.9373 30.3464L22.7461 30.0228L23.0992 29.9102C23.5261 29.7741 23.9438 29.6096 24.3495 29.4178C24.7503 29.2275 25.1382 29.0102 25.5104 28.7674L25.6491 28.6767L25.8033 28.7518C26.3338 29.019 26.8863 29.2387 27.4545 29.4084C28.029 29.5802 28.617 29.702 29.212 29.7727L29.7886 29.8415L29.3939 30.2714C29.0086 30.6907 28.7051 31.1804 28.4997 31.7144C28.294 32.2544 28.1894 32.8286 28.1914 33.4075C28.1855 34.5926 28.6325 35.734 29.4386 36.5921C29.8231 37.0044 30.2859 37.3336 30.7991 37.5598C31.3123 37.786 31.8653 37.9046 32.4249 37.9085C33.2035 37.909 33.9661 37.6845 34.6233 37.2612C35.2963 36.8263 35.8395 36.2133 36.1943 35.4884L36.2791 35.3164H36.4687H36.5643H36.6506C37.1335 35.315 37.6111 35.2143 38.0544 35.0203C38.4978 34.8263 38.8977 34.543 39.2299 34.1876C39.9258 33.4501 40.3126 32.4678 40.3091 31.447C40.3094 31.2133 40.2898 30.9801 40.2505 30.7498C40.2086 30.5255 40.1477 30.3053 40.0686 30.0916L39.956 29.7789L40.2798 29.7039C41.2348 29.477 42.0823 28.9205 42.6771 28.1296C43.2862 27.3188 43.616 26.3277 43.616 25.3085C43.616 24.2892 43.2862 23.2982 42.6771 22.4873C42.0801 21.6955 41.2297 21.1394 40.2721 20.9146L40.0562 20.8677L40.0408 20.6473C39.9678 19.6195 39.6954 18.6164 39.2391 17.6956C38.7632 16.7414 38.1177 15.8844 37.3352 15.1676L37.2534 15.0957L37.2365 14.9941C37.0915 14.1053 36.6482 13.2946 35.9816 12.6991C35.3359 12.1217 34.5052 11.8021 33.6443 11.8001C33.2628 11.7994 32.8837 11.8617 32.522 11.9846C32.1578 12.1097 31.8158 12.2934 31.5091 12.5287L31.4197 12.5975L31.3102 12.5818C31.1561 12.5693 31.0188 12.5615 30.8893 12.5552C30.7598 12.549 30.6226 12.5552 30.4638 12.5552C30.2028 12.5552 29.9494 12.5641 29.7038 12.5818C29.4581 12.5995 29.2074 12.6261 28.9514 12.6616L28.7757 12.6866L28.6724 12.5302C28.1857 11.8468 27.5387 11.2972 26.79 10.9309C25.9632 10.5269 25.0536 10.3278 24.1361 10.3501C23.2186 10.3724 22.3195 10.6154 21.5128 11.0591C20.7101 11.5023 20.047 12.1661 19.5995 12.9742L19.524 13.1196L19.359 13.1274C16.9557 13.2199 14.6637 14.1783 12.8947 15.8305C12.0779 16.5843 11.4234 17.501 10.9724 18.5234C10.5214 19.5457 10.2836 20.6514 10.2738 21.7713C10.2738 21.9933 10.2826 22.2112 10.3 22.4248C10.3185 22.6468 10.3463 22.8641 10.3802 23.0736L10.4141 23.2753L10.2538 23.3691C9.68186 23.7123 9.20997 24.2032 8.8863 24.7918C8.53267 25.439 8.3621 26.1727 8.39339 26.912C8.42467 27.6513 8.65659 28.3674 9.0636 28.9816H9.06822Z" fill="#949494"/>
<path d="M15.6151 15.6001C15.9592 15.5995 16.3 15.6683 16.6177 15.8025C16.9353 15.9367 17.2234 16.1337 17.4653 16.3818C17.9555 16.8867 18.2302 17.5667 18.2302 18.2752C18.2302 18.9837 17.9555 19.6638 17.4653 20.1686C17.2238 20.4177 16.9358 20.6154 16.6182 20.7504C16.3005 20.8855 15.9595 20.955 15.6151 20.955C15.2707 20.955 14.9297 20.8855 14.6121 20.7504C14.2944 20.6154 14.0065 20.4177 13.765 20.1686C13.2748 19.6638 13 18.9837 13 18.2752C13 17.5667 13.2748 16.8867 13.765 16.3818C14.0069 16.1337 14.295 15.9369 14.6127 15.8027C14.9303 15.6685 15.271 15.5996 15.6151 15.6001ZM16.9442 16.9103C16.7704 16.7316 16.5635 16.5897 16.3352 16.4928C16.1069 16.396 15.8618 16.3461 15.6144 16.3461C15.3669 16.3461 15.1219 16.396 14.8936 16.4928C14.6653 16.5897 14.4582 16.7316 14.2845 16.9103C13.9305 17.277 13.7322 17.7698 13.7322 18.2831C13.7322 18.7963 13.9305 19.2891 14.2845 19.6558C14.4582 19.8345 14.6653 19.9765 14.8936 20.0734C15.1219 20.1703 15.3669 20.2202 15.6144 20.2202C15.8618 20.2202 16.1069 20.1703 16.3352 20.0734C16.5635 19.9765 16.7704 19.8345 16.9442 19.6558C17.2986 19.2893 17.4972 18.7964 17.4972 18.2831C17.4972 17.7697 17.2986 17.2769 16.9442 16.9103Z" fill="#E8E8E8"/>
<path fill-rule="evenodd" clip-rule="evenodd" d="M25.8667 40.5047C28.221 40.4977 30.4769 39.5462 32.1416 37.8581C33.8064 36.17 34.7446 33.8822 34.7515 31.4949V27.7632C34.7483 26.5787 34.2828 25.4438 33.4569 24.6063C32.631 23.7687 31.5118 23.2968 30.3438 23.2935H21.3882C20.2202 23.2968 19.101 23.7687 18.2751 24.6063C17.4492 25.4438 16.9837 26.5787 16.9805 27.7632V31.4949C16.9874 33.8822 17.9256 36.17 19.5904 37.8581C21.2551 39.5462 23.511 40.4977 25.8652 40.5047H25.8667Z" fill="white"/>
<path fill-rule="evenodd" clip-rule="evenodd" d="M28.5206 34.3547C28.5882 34.6909 28.5844 35.0381 28.5097 35.3727C28.42 35.8132 28.2529 36.2336 28.0164 36.6141C27.8163 36.9178 27.5486 37.1694 27.2348 37.3489C26.8906 37.5635 26.508 37.7075 26.1091 37.7726C25.6096 37.8443 25.1058 37.8791 24.6014 37.8771C24.2267 37.8771 24.1187 37.8773 24.0015 37.7741C23.9158 37.6927 23.8483 37.5936 23.8034 37.4836C23.7584 37.3736 23.737 37.2552 23.7409 37.1362C23.7176 36.7134 23.8519 36.2969 24.1171 35.9697C24.4949 35.6585 24.952 35.4622 25.4353 35.4036C25.9566 35.3085 26.4686 35.1662 26.9649 34.9784C27.2616 34.8351 27.5313 34.6405 27.762 34.4032C27.8399 34.3338 27.9253 34.2735 28.0164 34.2234C28.0843 34.1734 28.1783 34.0669 28.2739 34.0669C28.3695 34.0669 28.4651 34.1357 28.5206 34.3608V34.3547Z" fill="white"/>
<path fill-rule="evenodd" clip-rule="evenodd" d="M17.082 32.8365C17.2737 34.0999 17.7272 35.3078 18.4126 36.3807C19.0979 37.4535 19.9997 38.3668 21.0584 39.0607L21.08 39.0528C21.1833 39.0044 21.154 38.8779 20.9258 38.6309C20.5245 38.2591 20.1465 37.8622 19.7941 37.4426C19.3087 36.8094 18.8949 36.1228 18.5607 35.3959C18.3113 34.8273 18.1 34.2422 17.9285 33.6448C17.8639 33.3361 17.731 33.0464 17.5399 32.7974C17.4212 32.6926 17.2825 32.7129 17.0929 32.838L17.082 32.8365Z" fill="#FEFEFE"/>
<path fill-rule="evenodd" clip-rule="evenodd" d="M25.8675 40.5048C27.9996 40.4969 30.0584 39.7147 31.6705 38.2998C33.2827 36.885 34.3416 34.9312 34.6553 32.7927C34.5892 32.7318 34.51 32.6874 34.424 32.6629C34.2791 32.6442 34.1589 32.8194 33.7072 33.6198C33.107 34.7462 32.4105 35.8171 31.6257 36.82C30.8967 37.6782 29.9975 38.3709 28.9865 38.8525C28.1981 39.252 27.3543 39.5276 26.4842 39.6701C25.656 39.7982 24.8117 39.7716 23.9929 39.5918C23.1601 39.4004 22.3395 39.1582 21.5355 38.8664C21.019 38.6866 21.019 38.6868 21.2056 39.1386L21.2208 39.176C22.6149 40.0506 24.222 40.5134 25.8613 40.5126L25.8675 40.5048Z" fill="white"/>
<path fill-rule="evenodd" clip-rule="evenodd" d="M34.7515 28.0762V27.7636C34.7483 26.5792 34.2828 25.4443 33.4569 24.6067C32.631 23.7692 31.5118 23.2972 30.3438 23.2939H21.3882C20.2202 23.2972 19.101 23.7692 18.2751 24.6067C17.4492 25.4443 16.9837 26.5792 16.9805 27.7636V31.5158C17.0558 31.5573 17.139 31.5821 17.2246 31.5887C17.3101 31.5953 17.396 31.5835 17.4767 31.5539C17.5574 31.5244 17.631 31.4778 17.6927 31.4173C17.7544 31.3568 17.8028 31.2838 17.8346 31.203C17.9411 30.7593 17.9469 30.2969 17.8515 29.8507C17.761 29.1051 17.8091 28.3489 17.9933 27.6213C18.2042 27.1176 18.5993 26.7165 19.0957 26.502C19.5012 26.2769 19.8372 26.1065 20.067 26.1894C20.598 26.5732 21.2283 26.7905 21.8799 26.8146C23.8018 27.0128 25.7364 27.0516 27.6644 26.9304C29.1876 26.8069 29.4327 26.5114 29.7149 26.305C29.8336 26.1869 29.9904 26.1162 30.1565 26.1062C30.3225 26.0961 30.4866 26.1473 30.6183 26.2503C30.9174 26.5067 31.1918 27.1274 31.827 27.4839C32.5461 27.7918 33.3134 27.9674 34.0932 28.0028C34.3738 28.0293 34.5819 28.0606 34.7515 28.0762Z" fill="white"/>
<path d="M25.8687 40.2063C28.1448 40.1993 30.3258 39.2792 31.9353 37.6471C33.5448 36.015 34.452 33.8033 34.4589 31.4951V27.7617C34.4587 27.2143 34.352 26.6725 34.1449 26.167C33.9377 25.6616 33.6343 25.2027 33.2518 24.8164C32.871 24.4285 32.4183 24.1206 31.9199 23.9105C31.4214 23.7005 30.887 23.5923 30.3472 23.5922H21.3916C20.8518 23.5924 20.3174 23.7006 19.8189 23.9107C19.3205 24.1208 18.8679 24.4286 18.487 24.8164C18.1045 25.2027 17.8011 25.6616 17.5939 26.167C17.3868 26.6725 17.28 27.2143 17.2798 27.7617V31.4951C17.2867 33.8033 18.194 36.015 19.8035 37.6471C21.413 39.2792 23.594 40.1993 25.8702 40.2063H25.8687ZM32.3438 38.069C31.0606 39.3672 29.4271 40.251 27.6493 40.6091C25.8715 40.9672 24.0289 40.7835 22.3538 40.0813C20.6788 39.379 19.2463 38.1897 18.2369 36.6631C17.2275 35.1365 16.6863 33.341 16.6816 31.503V27.7695C16.6829 27.1435 16.8062 26.5239 17.0443 25.9462C17.2824 25.3686 17.6307 24.8444 18.0692 24.4037C18.5039 23.9591 19.0209 23.6058 19.5905 23.3643C20.1601 23.1229 20.7711 22.9979 21.3885 22.9966H30.3441C30.9615 22.9979 31.5726 23.1229 32.1422 23.3643C32.7118 23.6058 33.2288 23.959 33.6634 24.4037C34.1018 24.8444 34.4501 25.3686 34.6882 25.9462C34.9263 26.5238 35.0496 27.1435 35.051 27.7695V31.503C35.0494 32.7235 34.8104 33.9316 34.3477 35.0583C33.885 36.1851 33.2077 37.2081 32.3545 38.069H32.3438Z" fill="#949494"/>
<path fill-rule="evenodd" clip-rule="evenodd" d="M24.0041 29.3161C24.1623 29.3295 24.3133 29.3891 24.4385 29.488C24.5637 29.587 24.6578 29.7207 24.7093 29.873C24.7608 30.0253 24.7674 30.1895 24.7283 30.3456C24.6893 30.5016 24.6063 30.6427 24.4895 30.7517C24.3727 30.8607 24.2271 30.9327 24.0705 30.9592C23.914 30.9856 23.7531 30.9653 23.6077 30.9006C23.4624 30.8359 23.3388 30.7296 23.252 30.5948C23.1652 30.46 23.1191 30.3025 23.1191 30.1415C23.1292 29.9133 23.2279 29.6983 23.3937 29.5436C23.5596 29.3889 23.779 29.3072 24.0041 29.3161Z" fill="#949494"/>
<path fill-rule="evenodd" clip-rule="evenodd" d="M27.5998 29.4596C27.758 29.473 27.909 29.5327 28.0342 29.6316C28.1594 29.7305 28.2535 29.8643 28.305 30.0166C28.3565 30.1688 28.3631 30.3331 28.324 30.4891C28.285 30.6452 28.202 30.7863 28.0852 30.8953C27.9684 31.0042 27.8228 31.0763 27.6662 31.1027C27.5097 31.1292 27.3488 31.1088 27.2034 31.0441C27.0581 30.9794 26.9345 30.8732 26.8477 30.7384C26.7609 30.6036 26.7148 30.4461 26.7148 30.2851C26.7249 30.0568 26.8236 29.8418 26.9894 29.6871C27.1553 29.5325 27.3747 29.4507 27.5998 29.4596Z" fill="#949494"/>
<path fill-rule="evenodd" clip-rule="evenodd" d="M27.5559 30.3709C27.6071 30.3754 27.6558 30.395 27.6963 30.4272C27.7368 30.4594 27.7673 30.5028 27.7838 30.5522C27.8004 30.6016 27.8024 30.6547 27.7897 30.7053C27.777 30.7558 27.7502 30.8015 27.7123 30.8368C27.6745 30.8721 27.6273 30.8955 27.5766 30.9041C27.5259 30.9128 27.4737 30.9061 27.4266 30.8852C27.3795 30.8644 27.3393 30.8301 27.3111 30.7866C27.2828 30.743 27.2678 30.692 27.2676 30.6398C27.269 30.6029 27.2775 30.5666 27.2928 30.5331C27.3081 30.4996 27.3296 30.4696 27.3564 30.4446C27.3832 30.4196 27.4148 30.4001 27.449 30.3875C27.4832 30.3749 27.5195 30.3692 27.5559 30.3709Z" fill="#E8E8E8"/>
<path fill-rule="evenodd" clip-rule="evenodd" d="M26.8118 28.1123L30.4459 27.6058C30.518 27.5964 30.5909 27.6163 30.6486 27.6611C30.7064 27.7059 30.7442 27.7721 30.7542 27.8451C30.7634 27.9182 30.7438 27.9919 30.6996 28.0505C30.6555 28.109 30.5904 28.1476 30.5184 28.1577L26.8828 28.6643C26.8106 28.6736 26.7378 28.6537 26.6801 28.6089C26.6223 28.5641 26.5844 28.4981 26.5745 28.4251C26.5653 28.3518 26.5851 28.2776 26.6296 28.219C26.6741 28.1604 26.7395 28.122 26.8118 28.1123Z" fill="#949494"/>
<path fill-rule="evenodd" clip-rule="evenodd" d="M24.6769 28.1123L21.0429 27.6058C20.9708 27.5964 20.898 27.6163 20.8402 27.6611C20.7825 27.7059 20.7446 27.7721 20.7347 27.8451C20.7254 27.9182 20.7449 27.9919 20.7891 28.0505C20.8332 28.109 20.8985 28.1476 20.9705 28.1577L24.6044 28.6643C24.6765 28.6736 24.7494 28.6537 24.8071 28.6089C24.8649 28.5641 24.9029 28.4981 24.9129 28.4251C24.9221 28.352 24.9025 28.2781 24.8583 28.2196C24.8142 28.161 24.7489 28.1224 24.6769 28.1123Z" fill="#949494"/>
<path fill-rule="evenodd" clip-rule="evenodd" d="M31.0023 32.4164C31.3342 32.4311 31.6546 32.5443 31.9236 32.742C32.1926 32.9397 32.3984 33.2131 32.5155 33.5283C32.6326 33.8436 32.6559 34.1869 32.5824 34.5154C32.5088 34.844 32.3417 35.1433 32.1019 35.3764C31.862 35.6095 31.5597 35.7659 31.2329 35.8264C30.9061 35.8869 30.569 35.8488 30.2634 35.7167C29.9578 35.5846 29.6973 35.3644 29.514 35.0834C29.3307 34.8024 29.2327 34.4731 29.2324 34.1362C29.2425 33.6702 29.4347 33.2273 29.7666 32.9048C30.0984 32.5823 30.5428 32.4068 31.0023 32.4164Z" fill="#DBDBDB"/>
<path fill-rule="evenodd" clip-rule="evenodd" d="M20.5844 32.4164C20.9163 32.4311 21.2367 32.5443 21.5057 32.742C21.7747 32.9397 21.9805 33.2131 22.0976 33.5283C22.2147 33.8436 22.2379 34.1869 22.1643 34.5154C22.0907 34.844 21.9237 35.1433 21.6838 35.3764C21.4439 35.6095 21.1418 35.7659 20.815 35.8264C20.4882 35.8869 20.1511 35.8488 19.8455 35.7167C19.5399 35.5846 19.2792 35.3644 19.0959 35.0834C18.9126 34.8024 18.8148 34.4731 18.8145 34.1362C18.8246 33.6702 19.0166 33.2273 19.3485 32.9048C19.6804 32.5823 20.1248 32.4068 20.5844 32.4164Z" fill="#DBDBDB"/>
<path fill-rule="evenodd" clip-rule="evenodd" d="M21.1787 20.7578H30.1423C30.4049 20.7586 30.6566 20.8648 30.8423 21.0531C31.0281 21.2415 31.1327 21.4966 31.1335 21.763V24.0722C31.1327 24.3385 31.0281 24.5936 30.8423 24.782C30.6566 24.9703 30.4049 25.0766 30.1423 25.0774H21.1787C20.9161 25.0766 20.6646 24.9703 20.4788 24.782C20.2931 24.5936 20.1883 24.3385 20.1875 24.0722V21.763C20.1883 21.4966 20.2931 21.2415 20.4788 21.0531C20.6646 20.8648 20.9161 20.7586 21.1787 20.7578Z" fill="white"/>
<path fill-rule="evenodd" clip-rule="evenodd" d="M21.225 20.758H30.096C30.3647 20.7529 30.6245 20.8557 30.8188 21.044C31.0131 21.2322 31.1262 21.4907 31.1335 21.7632V21.9758C31.0069 21.9074 30.8937 21.8163 30.7991 21.7069C30.6819 21.574 30.5545 21.4506 30.4182 21.338C30.301 21.2535 30.2055 21.2379 28.6715 21.2379C27.1375 21.2379 24.1635 21.252 22.6218 21.2692C21.0801 21.2864 20.9692 21.3052 20.8844 21.3974C20.7996 21.4896 20.7394 21.6537 20.7116 22.1415C20.6816 22.7267 20.692 23.3135 20.7425 23.8972C20.7412 24.1437 20.8265 24.3825 20.983 24.571C21.0709 24.6804 21.1465 24.7914 21.108 24.893C21.0913 24.9285 21.067 24.9597 21.0368 24.9844C21.0067 25.009 20.9714 25.0264 20.9337 25.0353C20.7227 24.9788 20.5358 24.8541 20.4011 24.68C20.2664 24.5059 20.1914 24.292 20.1875 24.0707V21.7616C20.1952 21.4895 20.3084 21.2313 20.5027 21.0434C20.697 20.8555 20.9566 20.7529 21.225 20.758Z" fill="#FEFEFE"/>
<path d="M21.2247 20.4595H30.0956C30.449 20.4584 30.7892 20.5956 31.0453 20.8425C31.1676 20.9605 31.2652 21.1022 31.3323 21.2594C31.3993 21.4165 31.4344 21.5858 31.4354 21.757V24.0662C31.4347 24.2388 31.3994 24.4094 31.3315 24.5677C31.2636 24.726 31.1647 24.8687 31.0407 24.987C30.7841 25.234 30.4433 25.3712 30.0894 25.37H21.2187C20.8653 25.371 20.525 25.2338 20.2688 24.987C20.1464 24.869 20.0489 24.7273 19.9818 24.5701C19.9148 24.4129 19.8798 24.2436 19.8789 24.0724V21.7633C19.8799 21.5906 19.9154 21.4199 19.9835 21.2616C20.0517 21.1033 20.1508 20.9607 20.2751 20.8425C20.5313 20.5957 20.8713 20.4585 21.2247 20.4595ZM30.0956 21.0551H21.2247C21.0331 21.0546 20.8486 21.1291 20.7098 21.263C20.6426 21.3271 20.5889 21.4043 20.5521 21.49C20.5152 21.5758 20.4961 21.6683 20.4956 21.7618V24.0709C20.4959 24.1645 20.5148 24.2571 20.5513 24.3431C20.5879 24.4291 20.6413 24.5067 20.7083 24.5711C20.8476 24.7042 21.0318 24.778 21.2232 24.7774H30.0941C30.2857 24.7777 30.4701 24.7033 30.609 24.5695C30.6764 24.5053 30.7303 24.4279 30.7671 24.3419C30.804 24.2558 30.8231 24.163 30.8234 24.0692V21.7602C30.823 21.6668 30.8039 21.5744 30.7673 21.4887C30.7307 21.403 30.6774 21.3257 30.6105 21.2615C30.4713 21.1284 30.287 21.0545 30.0956 21.0551Z" fill="#949494"/>
<path d="M12.5585 24.398C12.9026 24.3974 13.2433 24.4662 13.561 24.6005C13.8786 24.7347 14.1667 24.9316 14.4087 25.1797C14.8989 25.6845 15.1736 26.3645 15.1736 27.073C15.1736 27.7815 14.8989 28.4616 14.4087 28.9665C14.1672 29.2155 13.8792 29.4132 13.5615 29.5482C13.2439 29.6832 12.9029 29.7528 12.5585 29.7528C12.2141 29.7528 11.8731 29.6832 11.5554 29.5482C11.2378 29.4132 10.9498 29.2155 10.7083 28.9665C10.2181 28.4616 9.94336 27.7815 9.94336 27.073C9.94336 26.3645 10.2181 25.6845 10.7083 25.1797C10.9502 24.9316 11.2384 24.7347 11.556 24.6005C11.8736 24.4662 12.2144 24.3974 12.5585 24.398ZM13.8875 25.708C13.7138 25.5293 13.5068 25.3875 13.2785 25.2906C13.0502 25.1937 12.8052 25.1438 12.5577 25.1438C12.3102 25.1438 12.0652 25.1937 11.8369 25.2906C11.6086 25.3875 11.4016 25.5293 11.2279 25.708C10.8735 26.0745 10.6749 26.5675 10.6749 27.0808C10.6749 27.5942 10.8735 28.0871 11.2279 28.4536C11.4016 28.6324 11.6086 28.7742 11.8369 28.871C12.0652 28.9679 12.3102 29.0178 12.5577 29.0178C12.8052 29.0178 13.0502 28.9679 13.2785 28.871C13.5068 28.7742 13.7138 28.6324 13.8875 28.4536C14.242 28.0871 14.4405 27.5942 14.4405 27.0808C14.4405 26.5675 14.242 26.0745 13.8875 25.708Z" fill="#E8E8E8"/>
<path d="M39.5275 23.0327C39.8716 23.0322 40.2122 23.1012 40.5299 23.2354C40.8475 23.3696 41.1356 23.5663 41.3776 23.8145C41.8678 24.3193 42.1424 24.9995 42.1424 25.7079C42.1424 26.4164 41.8678 27.0964 41.3776 27.6012C41.1361 27.8503 40.8479 28.0481 40.5302 28.1832C40.2126 28.3182 39.8719 28.3878 39.5275 28.3878C39.183 28.3878 38.842 28.3182 38.5243 28.1832C38.2067 28.0481 37.9185 27.8503 37.677 27.6012C37.1868 27.0964 36.9121 26.4164 36.9121 25.7079C36.9121 24.9995 37.1868 24.3193 37.677 23.8145C37.919 23.5664 38.2075 23.3696 38.5251 23.2354C38.8427 23.1012 39.1834 23.0323 39.5275 23.0327ZM40.8562 24.3429C40.6826 24.164 40.4759 24.022 40.2476 23.925C40.0192 23.828 39.7742 23.778 39.5267 23.778C39.2792 23.778 39.0338 23.828 38.8055 23.925C38.5772 24.022 38.3704 24.164 38.1968 24.3429C37.8424 24.7095 37.6439 25.2024 37.6439 25.7158C37.6439 26.2291 37.8424 26.7219 38.1968 27.0884C38.3704 27.2673 38.5772 27.4096 38.8055 27.5066C39.0338 27.6036 39.2792 27.6535 39.5267 27.6535C39.7742 27.6535 40.0192 27.6036 40.2476 27.5066C40.4759 27.4096 40.6826 27.2673 40.8562 27.0884C41.2107 26.7219 41.4092 26.2291 41.4092 25.7158C41.4092 25.2024 41.2107 24.7095 40.8562 24.3429Z" fill="#E8E8E8"/>
<path d="M33.5019 13.249C33.846 13.2485 34.1867 13.3174 34.5043 13.4516C34.8219 13.5858 35.1101 13.7826 35.352 14.0308C35.8422 14.5356 36.1171 15.2157 36.1171 15.9242C36.1171 16.6326 35.8422 17.3127 35.352 17.8175C35.1105 18.0666 34.8225 18.2643 34.5049 18.3994C34.1872 18.5344 33.8463 18.6039 33.5019 18.6039C33.1575 18.6039 32.8166 18.5344 32.4989 18.3994C32.1813 18.2643 31.8933 18.0666 31.6518 17.8175C31.1616 17.3127 30.8867 16.6326 30.8867 15.9242C30.8867 15.2157 31.1616 14.5356 31.6518 14.0308C31.8937 13.7826 32.1819 13.5858 32.4995 13.4516C32.8171 13.3174 33.1578 13.2485 33.5019 13.249ZM34.8308 14.5592C34.6571 14.3805 34.4503 14.2386 34.222 14.1417C33.9937 14.0448 33.7486 13.9949 33.5011 13.9949C33.2537 13.9949 33.0086 14.0448 32.7803 14.1417C32.552 14.2386 32.345 14.3805 32.1712 14.5592C31.8168 14.9258 31.6183 15.4186 31.6183 15.932C31.6183 16.4453 31.8168 16.9382 32.1712 17.3047C32.345 17.4834 32.552 17.6254 32.7803 17.7223C33.0086 17.8191 33.2537 17.869 33.5011 17.869C33.7486 17.869 33.9937 17.8191 34.222 17.7223C34.4503 17.6254 34.6571 17.4834 34.8308 17.3047C35.1853 16.9382 35.384 16.4453 35.384 15.932C35.384 15.4186 35.1853 14.9258 34.8308 14.5592Z" fill="#E8E8E8"/>
<path fill-rule="evenodd" clip-rule="evenodd" d="M21.6246 19.4434H29.6127V24.2386C29.6115 24.6334 29.4563 25.0116 29.181 25.2908C28.9057 25.57 28.5327 25.7274 28.1434 25.7286H23.0924C22.7031 25.7274 22.3301 25.57 22.0548 25.2908C21.7795 25.0116 21.6243 24.6334 21.623 24.2386L21.6246 19.4434Z" fill="#949494"/>
<path fill-rule="evenodd" clip-rule="evenodd" d="M23.4875 25.7298H23.0943C22.705 25.7285 22.332 25.5711 22.0568 25.292C21.7815 25.0128 21.6262 24.6346 21.625 24.2398V20.4561C21.6959 20.4561 21.7621 20.4561 21.8207 20.4561H22.0921C22.1415 20.4561 22.1415 20.4561 22.1384 20.8001C22.1354 21.144 22.1276 21.832 22.123 22.4777C22.1184 23.1234 22.123 23.7285 22.123 24.1053C22.1088 24.3453 22.149 24.5854 22.2403 24.8073C22.3268 25.0145 22.4793 25.1862 22.6735 25.2951C22.8846 25.3605 23.1006 25.4081 23.3194 25.4374C23.3521 25.4401 23.3836 25.4508 23.4113 25.4685C23.439 25.4862 23.4622 25.5104 23.4787 25.5391C23.4952 25.5678 23.5046 25.6001 23.5061 25.6333C23.5077 25.6665 23.5013 25.6996 23.4875 25.7298Z" fill="#DADADA"/>
<path d="M29.8336 20.4595V24.2399C29.8335 24.4649 29.7897 24.6876 29.7045 24.8952C29.6193 25.1029 29.4944 25.2915 29.3371 25.4501C29.1806 25.6095 28.9948 25.736 28.79 25.8224C28.5852 25.9088 28.3657 25.9534 28.1439 25.9535H23.0944C22.6446 25.9535 22.2132 25.7723 21.8951 25.4498C21.5771 25.1272 21.3984 24.6899 21.3984 24.2337V20.4595H21.8392V24.2399C21.8404 24.5754 21.9725 24.8969 22.2064 25.1341C22.4404 25.3713 22.7573 25.5051 23.0882 25.5064H28.1376C28.3015 25.5065 28.4636 25.4739 28.6149 25.4103C28.7663 25.3467 28.9039 25.2534 29.0196 25.1358C29.1358 25.0186 29.228 24.8792 29.291 24.7258C29.354 24.5723 29.3864 24.4078 29.3864 24.2416V20.4595H29.8274H29.8336Z" fill="#949494"/>
<path fill-rule="evenodd" clip-rule="evenodd" d="M15.8063 29.4972C16.3356 29.4919 16.8544 29.6464 17.297 29.9407C17.7396 30.2351 18.0859 30.6561 18.2921 31.1504C18.4982 31.6447 18.5549 32.1901 18.4548 32.7171C18.3548 33.2441 18.1025 33.7292 17.7301 34.1106C17.3577 34.4919 16.882 34.7524 16.3632 34.8591C15.8445 34.9657 15.3063 34.9136 14.8168 34.7095C14.3273 34.5053 13.9087 34.1583 13.6141 33.7124C13.3195 33.2665 13.1622 32.742 13.1621 32.2052C13.1589 31.4906 13.4356 30.8039 13.9314 30.2961C14.4272 29.7883 15.1016 29.5009 15.8063 29.4972Z" fill="#949494"/>
<path d="M16.6914 29.416C17.123 29.5599 17.5145 29.8059 17.8338 30.1336C18.142 30.4487 18.3758 30.8304 18.5178 31.2501C18.6598 31.6699 18.7063 32.1168 18.6538 32.5573C18.6013 32.9978 18.4511 33.4205 18.2146 33.7939C17.9781 34.1672 17.6613 34.4815 17.288 34.713C17.2541 34.5989 17.2094 34.4472 17.1616 34.2659C17.2913 34.1768 17.4121 34.0753 17.5224 33.9626C17.9782 33.4944 18.2337 32.863 18.2337 32.2052C18.2337 31.5473 17.9782 30.916 17.5224 30.4478C17.2882 30.2071 17.0073 30.0181 16.6975 29.8928C16.6944 29.7255 16.6929 29.5661 16.6914 29.416Z" fill="#949494"/>
<path fill-rule="evenodd" clip-rule="evenodd" d="M35.7592 29.5519C36.2885 29.5466 36.8073 29.7009 37.2498 29.9952C37.6924 30.2896 38.0389 30.7106 38.2451 31.2049C38.4512 31.6992 38.5078 32.2446 38.4077 32.7716C38.3076 33.2987 38.0555 33.7837 37.6831 34.1651C37.3107 34.5464 36.835 34.8069 36.3163 34.9136C35.7976 35.0203 35.2591 34.9683 34.7696 34.7642C34.2801 34.56 33.8616 34.2128 33.567 33.7669C33.2724 33.3211 33.1153 32.7965 33.1153 32.2598C33.112 31.5451 33.3884 30.8586 33.8843 30.3508C34.3801 29.843 35.0545 29.5556 35.7592 29.5519Z" fill="#949494"/>
<path d="M34.4041 34.8412C33.8958 34.5616 33.4817 34.1343 33.215 33.614C32.9483 33.0937 32.8415 32.5044 32.9078 31.9219C32.9742 31.3394 33.2107 30.7903 33.5873 30.3454C33.9639 29.9005 34.4633 29.5801 35.021 29.4253C35.0458 29.5803 35.0544 29.7376 35.047 29.8944C34.6717 30.0154 34.3283 30.2205 34.042 30.4947C33.5863 30.9628 33.3305 31.5942 33.3305 32.2521C33.3305 32.9099 33.5863 33.5413 34.042 34.0095C34.2084 34.1709 34.3894 34.3159 34.5829 34.4425C34.5644 34.6082 34.4396 34.6864 34.4041 34.8412Z" fill="#949494"/>
<path fill-rule="evenodd" clip-rule="evenodd" d="M34.3338 21.591C34.8631 21.5857 35.3818 21.7399 35.8244 22.0343C36.2671 22.3287 36.6136 22.7499 36.8197 23.2443C37.0258 23.7388 37.0821 24.2842 36.9819 24.8113C36.8817 25.3383 36.6295 25.8234 36.2569 26.2047C35.8844 26.586 35.4086 26.8464 34.8898 26.9529C34.371 27.0593 33.8325 27.0071 33.3431 26.8027C32.8536 26.5983 32.4352 26.2509 32.1408 25.8049C31.8464 25.3588 31.6892 24.8341 31.6895 24.2973C31.6866 23.5829 31.9635 22.8966 32.4593 22.3891C32.9551 21.8816 33.6294 21.5947 34.3338 21.591Z" fill="#949494"/>
<path d="M35.0005 27.1476C34.5236 27.2632 34.0256 27.2522 33.5543 27.1152C33.0829 26.9782 32.6544 26.7201 32.3102 26.3659C31.9116 25.9564 31.6394 25.4378 31.5276 24.8736C31.4159 24.3094 31.4694 23.7243 31.6812 23.1904C31.8246 23.2217 31.9711 23.2561 32.1145 23.2967C31.9185 23.7546 31.8619 24.2615 31.9522 24.7522C32.0426 25.2429 32.2757 25.695 32.6215 26.0502C32.9172 26.3544 33.2863 26.5744 33.6921 26.6888C34.0978 26.8032 34.5262 26.8079 34.9342 26.7022C34.9527 26.8491 34.9773 26.9851 35.002 27.1446L35.0005 27.1476Z" fill="#949494"/>
<path fill-rule="evenodd" clip-rule="evenodd" d="M16.9863 21.4977C17.4712 21.493 17.9465 21.6346 18.3519 21.9044C18.7573 22.1742 19.0745 22.56 19.2632 23.013C19.452 23.4659 19.5038 23.9655 19.412 24.4484C19.3202 24.9312 19.089 25.3756 18.7477 25.7249C18.4065 26.0743 17.9706 26.3129 17.4953 26.4106C17.02 26.5082 16.5269 26.4605 16.0785 26.2735C15.63 26.0864 15.2465 25.7684 14.9766 25.3598C14.7067 24.9513 14.5625 24.4706 14.5625 23.9789C14.5597 23.324 14.8133 22.6947 15.2678 22.2294C15.7223 21.7641 16.3405 21.501 16.9863 21.4977Z" fill="#949494"/>
<path d="M19.5665 23.3643C19.6682 23.8116 19.6567 24.2778 19.5333 24.7195C19.4098 25.1612 19.1784 25.5641 18.8603 25.8908C18.6161 26.1422 18.3249 26.342 18.0038 26.4781C17.6827 26.6142 17.3381 26.684 16.9901 26.6836H16.8359C16.8652 26.5757 16.8899 26.4772 16.9084 26.4069C16.9172 26.3451 16.944 26.2872 16.9855 26.241C17.2754 26.2413 17.5626 26.1831 17.8302 26.0698C18.0978 25.9566 18.3405 25.7905 18.5442 25.5812C18.9593 25.1561 19.1916 24.5817 19.1902 23.9834C19.1908 23.8258 19.1753 23.6688 19.144 23.5145C19.2551 23.466 19.3614 23.4331 19.4523 23.4034L19.5665 23.3643Z" fill="#949494"/>
<path fill-rule="evenodd" clip-rule="evenodd" d="M23.9214 34.2705H28.2725C28.27 35.0703 27.9555 35.8366 27.3977 36.402C26.8398 36.9674 26.0839 37.2859 25.2952 37.288H23.9199V34.2705H23.9214Z" fill="#FEFEFE"/>
<path d="M23.9211 33.9717H28.2736C28.3517 33.9717 28.4265 34.0031 28.4818 34.0591C28.537 34.1151 28.5681 34.1914 28.5681 34.2706C28.5682 34.7064 28.4834 35.1377 28.3186 35.5401C28.1537 35.9426 27.9121 36.3083 27.6075 36.6158C27.3044 36.9248 26.9441 37.1697 26.5472 37.3369C26.1502 37.504 25.7246 37.5898 25.2948 37.5895H23.9196C23.8415 37.5895 23.7664 37.5581 23.7112 37.5021C23.656 37.4461 23.625 37.3703 23.625 37.2911V34.2736C23.6246 34.234 23.6319 34.1947 23.6467 34.158C23.6614 34.1213 23.6831 34.0879 23.7107 34.0599C23.7382 34.0318 23.7711 34.0093 23.8072 33.9942C23.8433 33.9791 23.882 33.9715 23.9211 33.9717ZM27.9621 34.5675H24.2139V36.9895H25.2933C25.6454 36.9897 25.9939 36.9191 26.319 36.7822C26.6442 36.6454 26.9397 36.445 27.1882 36.1921C27.6218 35.7557 27.8949 35.1818 27.9621 34.566V34.5675Z" fill="#949494"/>
<path fill-rule="evenodd" clip-rule="evenodd" d="M23.9739 30.2225C24.0251 30.227 24.074 30.2466 24.1145 30.2788C24.1549 30.3109 24.1852 30.3544 24.2018 30.4038C24.2184 30.4531 24.2205 30.5063 24.2078 30.5568C24.1951 30.6074 24.1681 30.653 24.1303 30.6883C24.0924 30.7236 24.0453 30.7471 23.9946 30.7557C23.9439 30.7643 23.8919 30.7577 23.8448 30.7368C23.7976 30.716 23.7575 30.6817 23.7292 30.6381C23.701 30.5946 23.6857 30.5437 23.6855 30.4916C23.6869 30.4547 23.6957 30.4184 23.711 30.3849C23.7262 30.3514 23.7478 30.3211 23.7746 30.2961C23.8014 30.2711 23.8328 30.2517 23.867 30.2391C23.9012 30.2264 23.9375 30.2208 23.9739 30.2225Z" fill="#E8E8E8"/>
</svg>
