<svg width="224" height="182" viewBox="0 0 224 182" fill="none" xmlns="http://www.w3.org/2000/svg">
<path d="M223.863 118.621C223.863 119.804 223.745 120.87 223.627 122.054C223.271 125.96 222.561 129.749 221.614 133.537C219.602 141.35 216.287 148.927 211.551 155.556C211.315 155.911 211.078 156.148 210.841 156.503C210.368 157.214 209.776 157.924 209.184 158.634C209.065 158.871 208.829 159.108 208.71 159.226C207.882 160.173 207.171 161.12 206.343 161.949C206.106 162.186 205.869 162.541 205.514 162.778C205.277 163.014 205.04 163.251 204.804 163.488C204.448 163.843 204.093 164.198 203.856 164.435C203.62 164.672 203.383 164.909 203.146 165.145C192.137 175.326 176.628 181.837 156.148 181.837C105.48 181.837 101.455 161.12 82.9869 156.977C80.264 156.385 77.1861 156.148 73.6346 156.503C67.597 156.977 60.0205 158.871 50.0763 162.659C48.5373 163.251 47.1167 163.725 45.5777 164.198C44.9858 164.435 44.3939 164.553 43.8019 164.672C43.6836 164.672 43.5652 164.79 43.5652 164.79C40.4872 165.737 37.5276 166.329 34.8048 166.684C34.4496 166.684 34.0945 166.803 33.7393 166.803C33.5025 166.803 33.3842 166.803 33.2658 166.803C32.5555 166.921 31.8452 166.921 31.1349 166.921C26.5179 167.039 22.4929 166.448 18.9414 165.145C17.9943 164.79 17.0472 164.435 16.2185 163.961C15.8634 163.725 15.5083 163.606 15.1531 163.37C14.6796 163.014 14.0876 162.778 13.6141 162.422C13.0222 162.067 12.4303 161.594 11.8384 161.12C11.3648 160.765 10.8913 160.292 10.4178 159.818C8.99715 158.516 7.81332 157.095 6.62949 155.438C6.15595 154.727 5.68241 154.136 5.32726 153.425C3.78827 150.821 2.60444 147.98 1.77575 144.902C1.65737 144.428 1.53898 143.955 1.4206 143.481C0.828681 141.232 0.473531 138.982 0.236764 136.615C0.11838 135.431 0 134.247 0 133.063C0 132.827 0 132.708 0 132.471C0 131.879 0 131.406 0 130.814V130.341C0 127.854 0.118394 125.368 0.473545 122.882C0.710312 121.343 0.828685 119.923 1.18384 118.502C3.07797 108.558 7.10301 98.8505 13.0222 91.5107C17.5208 85.9467 22.9664 79.9091 29.2407 73.99C30.1878 73.0429 31.2533 72.0958 32.2003 71.1487C32.4371 70.912 32.6739 70.6752 33.029 70.4385C33.7393 69.8465 34.3312 69.2546 35.0415 68.6627L35.1599 68.5443C35.8702 67.834 36.6989 67.242 37.4092 66.5317C48.5373 57.0611 61.6779 48.1823 76.3574 41.5528C77.6596 40.9609 79.0802 40.369 80.5008 39.7771C80.7376 39.6587 81.0927 39.5403 81.3295 39.4219C82.2766 39.0668 83.2236 38.5933 84.2891 38.2381H84.4075C84.4075 38.2381 84.4075 38.2381 84.5259 38.2381C85.8281 37.7646 87.1303 37.291 88.4325 36.8175C88.7877 36.6991 89.0245 36.5807 89.3796 36.4624C120.988 26.2814 158.042 28.6491 195.57 59.7839C196.753 60.731 197.937 61.7964 199.121 62.8619C199.358 63.0986 199.595 63.217 199.831 63.4538C200.423 63.9273 200.897 64.4009 201.489 64.8744C201.607 64.9928 201.844 65.2295 202.081 65.3479C203.028 66.295 203.975 67.1237 205.04 68.0708C205.987 69.0179 207.053 69.9649 208 71.0304C215.221 78.2518 220.075 87.9592 222.443 98.8505C223.035 101.455 223.508 104.059 223.745 106.782C223.982 110.807 224.1 114.714 223.863 118.621Z" fill="#EDF9F4"/>
<path d="M77.5396 138.272C78.0131 138.272 79.3153 138.036 79.0785 138.983C79.9072 139.456 80.8543 139.338 80.4991 140.64C80.3808 141.114 80.0256 141.587 79.9072 142.061C79.9072 142.416 80.0256 142.889 80.0256 143.245C80.144 143.718 80.0256 144.073 80.0256 144.547C80.0256 145.494 80.3807 146.678 78.9601 146.559C77.8947 146.559 77.7763 145.375 76.8292 145.139C76.2373 145.731 76.1189 145.375 75.4086 145.02C74.6983 144.665 74.4616 144.784 73.988 145.375C72.8042 146.914 70.3181 145.139 69.3711 143.836C68.7791 143.008 69.0159 142.771 69.1343 142.061C69.2527 141.469 68.8976 140.877 69.1343 140.403C69.3711 139.693 70.4365 139.693 71.1468 139.456C72.5674 138.983 73.8696 138.391 75.4086 138.391C76.0005 138.391 77.066 138.628 77.5396 138.272Z" fill="url(#paint0_linear)"/>
<path d="M75.1727 155.556H73.1602L73.8705 143.718H74.6991V147.032L79.5529 144.665L77.3036 146.085C77.3036 146.085 80.1448 146.677 81.0919 145.73C81.0919 145.73 80.0264 146.914 76.9484 146.441L74.6991 147.506L75.1727 155.556Z" fill="#B5F7CC"/>
<path d="M73.0417 144.191C73.5153 145.139 74.9359 143.836 75.4094 143.836C75.7645 143.836 76.2381 144.191 76.4748 144.31C76.9484 144.547 77.1851 144.547 77.7771 144.547C77.6587 144.902 78.2506 145.494 78.6058 145.73C78.9609 145.967 79.1977 145.849 79.6712 145.967C80.0264 146.086 79.908 145.967 80.2631 146.204C80.855 146.559 81.3286 146.796 81.9205 146.322C82.7492 145.73 82.394 145.139 82.0389 144.428C81.8021 144.073 81.8021 144.428 81.9205 143.955C82.0389 143.481 82.394 143.244 82.2757 142.652C82.1573 141.824 81.3286 141.705 80.7366 141.232C80.2631 140.877 80.4999 140.403 79.7896 139.93C79.0793 139.456 78.6057 139.811 77.7771 139.811C77.7771 138.983 78.2506 138.154 77.5403 137.325C77.3035 136.97 76.9484 136.852 76.83 136.496C76.5932 136.023 76.83 135.786 76.3565 135.431C76.0013 135.194 75.6462 134.958 75.1726 134.958C74.6991 134.958 74.6991 135.194 74.3439 135.313C73.6336 135.549 72.805 134.721 71.8579 135.194C71.0292 135.549 70.5557 136.852 70.7924 137.799C70.9108 138.154 71.1476 138.035 70.9108 138.509C70.7924 138.983 70.0822 139.338 69.8454 139.811C69.4902 140.403 69.3718 140.995 69.4902 141.705C69.4902 142.179 69.6086 142.297 69.3718 142.652C69.0167 143.126 68.4248 143.244 68.188 143.836C68.0696 144.31 68.0696 145.257 68.4248 145.612C68.6615 145.967 69.2535 145.967 69.6086 146.204C69.1351 147.151 70.5557 147.388 71.1476 147.388C71.8579 147.388 72.4498 147.151 72.805 146.559C73.0417 146.204 73.2785 145.494 73.1601 145.138C73.2785 144.783 72.805 144.665 73.0417 144.191C73.0417 144.073 73.0417 144.073 73.0417 144.191Z" fill="#B5F7CC"/>
<path d="M223.863 118.621C222.561 119.331 221.14 119.805 219.956 119.331C219.838 119.331 219.72 119.213 219.601 119.094C219.365 118.976 219.009 118.739 218.891 118.384C218.536 118.029 218.299 117.674 217.944 117.555C217.47 117.318 216.878 117.437 216.168 117.792C214.866 118.384 214.748 119.094 213.564 117.91C213.09 118.029 212.735 118.147 212.498 118.502C212.38 118.621 212.262 118.739 212.143 118.857C211.906 119.094 211.67 119.449 211.433 119.686C211.196 119.923 210.959 120.041 210.723 120.278C210.486 120.396 210.131 120.515 209.775 120.515C208.71 120.515 208.236 120.278 208 119.804C208 119.686 207.881 119.686 207.881 119.568V119.449C207.645 118.739 207.881 117.674 207.881 116.727C207.881 115.779 207.763 115.188 207.881 114.241C208 113.649 208.236 112.701 208.118 112.11C208 111.162 207.408 110.571 207.171 109.742C207.171 109.623 207.053 109.624 207.053 109.505C206.342 107.137 208.236 107.374 209.657 106.427C209.184 105.125 210.486 105.007 211.551 105.007C211.906 105.007 212.262 105.007 212.498 105.007L212.735 104.888C213.445 105.598 215.34 105.243 216.405 105.243C219.009 105.243 221.377 106.309 223.863 107.137C223.982 110.807 224.1 114.714 223.863 118.621Z" fill="#B5F7CC"/>
<path d="M216.88 136.97H220.668L219.366 114.951H217.827L217.945 120.988L208.829 116.608L212.973 119.331C212.973 119.331 207.764 120.396 205.988 118.739C205.988 118.739 208.001 120.87 213.802 120.041L217.945 122.054L216.88 136.97Z" fill="#B5F7CC"/>
<path d="M223.864 118.621C223.864 119.804 223.746 120.87 223.627 122.054H223.509C222.207 122.172 221.141 121.58 220.431 120.396C220.312 120.041 220.076 119.686 219.957 119.212C219.839 118.621 219.721 118.147 219.957 117.674C220.312 116.845 221.378 116.726 221.141 115.543C220.904 115.424 220.904 115.543 220.786 115.661L221.023 115.779C220.786 116.371 220.194 116.49 219.602 116.371C219.129 116.253 218.537 116.016 218.063 115.779C217.471 115.424 216.879 115.187 216.524 115.187C215.932 115.187 215.104 115.779 214.512 116.016C213.565 116.371 213.091 116.49 212.026 116.49C212.026 116.845 211.789 117.437 211.434 117.91C211.315 118.029 211.315 118.029 211.197 118.147C210.96 118.384 210.723 118.621 210.487 118.739C209.895 119.094 209.303 118.976 208.592 119.094C208.119 119.213 208.001 119.094 207.882 119.331C207.764 119.331 207.764 119.331 207.645 119.449C207.645 119.449 207.527 119.449 207.527 119.568C207.527 119.568 207.527 119.568 207.409 119.568C206.343 120.16 205.514 120.752 204.331 119.923C202.792 118.857 203.384 117.674 203.976 116.371C204.331 115.543 204.449 116.371 204.212 115.424C204.094 114.596 203.384 114.122 203.62 113.057C203.976 111.399 205.278 111.281 206.343 110.452C206.698 110.215 206.817 109.979 206.935 109.623C207.172 109.15 207.29 108.558 208.001 108.084C209.421 107.256 210.25 107.966 211.67 107.848C211.67 106.901 211.315 105.954 211.315 105.006C211.315 104.415 211.434 103.823 211.907 103.349C212.381 102.757 212.973 102.52 213.328 101.81C213.683 100.863 213.328 100.508 214.275 99.7976C214.867 99.3241 215.577 98.8506 216.406 98.8506C217.234 98.8506 217.234 99.3241 217.826 99.5609C219.129 100.034 220.549 98.6138 222.207 99.2057C222.798 101.81 223.272 104.415 223.509 107.137C223.982 110.807 224.101 114.714 223.864 118.621Z" fill="#B5F7CC"/>
<path d="M63.8091 152.952H25.0977V118.739L44.3942 97.6665L63.8091 118.739V152.952Z" fill="#6ECF91"/>
<path d="M24.2684 119.923L22.2559 118.147L44.3936 93.5234L66.4129 117.792L64.4004 119.686L44.3936 97.5484L24.2684 119.923Z" fill="#B5F7CC"/>
<path d="M35.9891 129.512V125.487C35.9891 123.948 34.6868 122.646 33.1478 122.646C31.6089 122.646 30.3066 123.948 30.3066 125.487V129.512H35.9891Z" fill="#B5F7CC"/>
<path d="M55.2854 145.967V138.272C55.2854 135.312 52.9177 132.945 49.9581 132.945C46.9985 132.945 44.6309 135.312 44.6309 138.272V145.967H55.2854Z" fill="#B5F7CC"/>
<path d="M38.9491 140.64H32.2012V152.834H38.9491V140.64Z" fill="#B5F7CC"/>
<path d="M202.317 129.748L149.518 130.34V124.303L157.568 110.333H191.781L202.317 129.748Z" fill="#6ECF91"/>
<path d="M188.111 129.749V124.303L170.827 108.795L149.518 124.303V152.478L167.749 148.69L188.111 146.796L201.843 140.522V129.749H188.111Z" fill="#B5F7CC"/>
<path d="M173.315 139.101H155.912V140.758H173.315V139.101Z" fill="#6ECF91"/>
<path d="M172.012 131.406H157.332V139.101H172.012V131.406Z" fill="#6ECF91"/>
<path d="M172.247 116.49V115.069C172.247 114.003 171.419 113.175 170.353 113.175C169.288 113.175 168.459 114.003 168.459 115.069V116.49H172.247Z" fill="#6ECF91"/>
<path d="M191.662 131.643H184.678V144.902H191.662V131.643Z" fill="#6ECF91"/>
<path d="M172.012 135.312H157.332V136.023H172.012V135.312Z" fill="#B5F7CC"/>
<path d="M160.186 131.327V139.022H160.659V131.327H160.186Z" fill="#B5F7CC"/>
<path d="M164.406 131.406V139.101H164.88V131.406H164.406Z" fill="#B5F7CC"/>
<path d="M168.117 131.328V139.022H168.591V131.328H168.117Z" fill="#B5F7CC"/>
<path d="M73.635 156.503C67.5974 156.977 60.0209 158.871 50.0767 162.659C48.5377 163.251 47.1171 163.843 45.5781 164.316V149.282C53.5098 153.307 63.0989 155.556 73.635 156.503Z" fill="#99E0AF"/>
<path d="M221.615 133.537C219.602 141.35 216.287 148.927 211.552 155.556C211.315 155.911 211.079 156.148 210.842 156.503C210.368 157.214 209.776 157.924 209.184 158.634C209.066 158.871 208.829 159.108 208.711 159.226C207.882 160.173 207.172 161.12 206.343 161.949C206.106 162.186 205.87 162.541 205.514 162.778C205.278 163.014 205.041 163.251 204.804 163.488C204.449 163.843 204.094 164.198 203.739 164.435C203.502 164.672 203.265 164.909 203.028 165.145C192.019 175.326 176.511 181.837 156.03 181.837C105.362 181.837 101.337 161.12 82.8691 156.977C83.1059 156.977 83.2243 156.977 83.4611 156.977C118.621 157.569 160.884 146.796 185.863 139.93C198.767 136.496 208.948 134.602 216.761 133.774C217.945 133.655 219.01 133.537 220.076 133.418C220.904 133.537 221.26 133.537 221.615 133.537Z" fill="#6ECF91"/>
<path d="M95.0611 69.9648C94.8244 69.8464 94.706 69.8465 94.5876 69.8465C94.4692 69.8465 94.3508 69.8464 94.2324 69.728" fill="#99E0AF"/>
<path d="M74.5817 69.9651C74.5817 70.4386 68.0706 70.7938 58.1264 71.0306C52.3256 71.1489 45.4594 71.2673 38.0012 71.2673C35.9887 71.2673 33.9762 71.2673 32.082 71.2673C32.3188 71.0305 32.5556 70.7938 32.7923 70.557C33.5026 69.9651 34.0946 69.3732 34.8049 68.7812C35.7519 68.7812 36.699 68.7812 37.7644 68.7812H37.8828C40.2505 68.7812 42.6182 68.7812 44.8675 68.7812C61.7963 68.7812 74.5817 69.3732 74.5817 69.9651Z" fill="#B5F7CC"/>
<path d="M58.1263 71.1486C58.1263 72.5692 45.5776 73.6346 29.0039 73.8714C29.951 72.9243 31.0164 71.9773 31.9635 71.0302C32.2003 70.7935 32.437 70.5567 32.6738 70.3199C33.3841 69.728 33.976 69.1361 34.6863 68.5441L34.8047 68.4258C35.7518 68.4258 36.6988 68.4258 37.6459 68.5441C40.0136 68.6625 42.1445 68.7809 44.157 68.8993C51.9703 69.3728 57.1792 70.0831 58.0079 70.9118C58.1263 71.0302 58.1263 71.1486 58.1263 71.1486Z" fill="#B5F7CC"/>
<path d="M45.1049 68.426C45.1049 68.5443 44.9865 68.6627 44.8681 68.7811C44.7497 68.8995 44.513 69.0178 44.2762 69.1362C42.6188 69.7281 38.4754 70.2017 32.793 70.6752C33.5033 70.0833 34.0952 69.4914 34.8055 68.8994L34.9239 68.7811C35.6342 68.0708 36.4629 67.4789 37.1732 66.7686C42.1453 67.1237 45.1049 67.7157 45.1049 68.426Z" fill="url(#paint1_linear)"/>
<path d="M201.371 65.111C196.754 64.8743 194.031 64.6375 194.031 64.4007C194.031 64.1639 196.162 63.9272 199.714 63.6904C200.306 64.164 200.779 64.6375 201.371 65.111Z" fill="#B5F7CC"/>
<path d="M204.804 68.3077C189.178 67.9526 177.576 66.8871 177.576 65.5849C177.576 65.3482 177.931 65.2298 178.405 64.993C180.891 64.1643 188.704 63.3356 199.004 62.9805C199.24 63.2172 199.477 63.3356 199.714 63.5724C200.306 64.0459 200.779 64.5195 201.371 64.993C201.49 65.1114 201.726 65.3482 201.963 65.4666C202.91 66.532 203.857 67.479 204.804 68.3077Z" fill="url(#paint2_linear)"/>
<path d="M201.844 65.5847H201.133C192.491 65.5847 184.678 65.348 178.404 64.9928C169.88 64.5193 164.553 63.6906 164.553 62.7436C164.553 61.323 177.93 60.1391 195.451 59.9023C196.635 60.8494 197.818 61.9148 199.002 62.9803C199.239 63.217 199.476 63.3354 199.713 63.5722C200.305 64.0457 200.778 64.5193 201.37 64.9928C201.488 65.348 201.725 65.4663 201.844 65.5847Z" fill="#B5F7CC"/>
<path d="M118.265 39.067C118.265 39.4221 110.689 39.7773 100.626 39.7773C99.3241 39.7773 97.9035 39.7773 96.4829 39.7773C90.4453 39.7773 84.9997 39.6589 80.9746 39.5405C81.9217 39.1853 82.9871 38.7118 83.9342 38.3566C84.6445 38.3566 85.3548 38.3566 86.0651 38.3566C89.1431 38.3566 92.6946 38.2383 96.3645 38.2383C100.745 38.2383 104.888 38.2383 108.321 38.3566C114.359 38.5934 118.265 38.8302 118.265 39.067Z" fill="url(#paint3_linear)"/>
<path d="M108.557 38.3563C108.557 38.3563 108.557 38.4747 108.439 38.4747C107.965 38.9483 104.887 39.4218 100.27 39.6586C99.0867 39.777 97.7845 39.7769 96.4822 39.8953C93.5226 40.0137 90.2079 40.0137 86.7748 40.0137C84.5255 40.0137 82.2762 40.0137 80.2637 39.8953C80.5004 39.7769 80.8556 39.6585 81.0924 39.5402C82.0394 39.185 82.9865 38.7115 84.052 38.3563H84.1703C84.1703 38.3563 84.1703 38.3563 84.2887 38.3563C85.5909 37.8828 86.8932 37.4092 88.1954 36.9357C88.5505 36.8173 88.7873 36.6989 89.1424 36.5806C100.152 36.8173 108.557 37.5276 108.557 38.3563Z" fill="url(#paint4_linear)"/>
<path d="M100.389 37.6464C100.389 38.0015 93.523 38.3567 84.2891 38.3567C84.2891 38.3567 84.2891 38.3567 84.4075 38.3567C85.7097 37.8831 87.0119 37.4096 88.3141 36.936C94.1149 37.0544 98.4951 37.1728 99.9157 37.4096C100.034 37.4096 100.152 37.4096 100.271 37.528C100.271 37.6463 100.389 37.6464 100.389 37.6464Z" fill="url(#paint5_linear)"/>
<path d="M203.856 164.554C203.619 164.79 203.382 165.027 203.146 165.264C192.136 175.445 176.628 181.956 156.147 181.956C105.479 181.956 101.454 161.239 82.9862 157.095C80.2634 156.503 77.1854 156.267 73.6339 156.622C67.5963 157.095 60.0198 158.989 50.0756 162.778C48.5366 163.37 47.116 163.962 45.577 164.435C44.9851 164.554 44.3932 164.79 43.8013 164.909C43.6829 164.909 43.5645 165.027 43.5645 165.027C40.4865 165.974 37.5269 166.566 34.8041 166.803C34.449 166.803 34.0938 166.921 33.7386 166.921C33.5019 166.921 33.3835 166.921 33.2651 166.921C32.5548 167.04 31.8445 167.04 31.1342 167.04C26.5172 167.158 22.4922 166.566 18.9407 165.264C17.9936 164.909 17.0466 164.553 16.2179 164.08C15.8627 163.843 15.5076 163.725 15.1524 163.488C14.5605 163.133 14.087 162.896 13.6134 162.541C13.0215 162.186 12.4296 161.712 11.8377 161.239C11.3641 160.884 10.8906 160.41 10.4171 159.937C8.99648 158.634 7.81264 157.214 6.62881 155.556C6.15528 154.846 5.68173 154.254 5.32658 153.544C3.7876 150.939 2.60376 148.098 1.77508 145.02C1.65669 144.547 1.53831 144.073 1.41992 143.6C1.65669 143.6 2.01185 143.6 2.24862 143.6C5.32659 143.6 9.23325 143.718 14.087 144.073C14.3237 144.073 14.4421 144.073 14.6789 144.073C24.1496 144.783 36.935 146.559 53.6271 150.466C62.1507 152.478 72.4501 154.728 83.8149 156.977C115.068 163.251 153.898 169.289 185.625 166.921C185.862 166.921 186.098 166.921 186.335 166.921C188.348 166.803 190.242 166.566 192.254 166.329C192.491 166.329 192.728 166.329 192.965 166.211C193.083 166.211 193.201 166.211 193.32 166.211C193.793 166.211 194.267 166.092 194.74 166.092C195.569 165.974 196.398 165.856 197.226 165.737C198.055 165.619 198.884 165.501 199.712 165.382C200.896 165.145 202.198 164.909 203.382 164.672C203.382 164.553 203.619 164.554 203.856 164.554Z" fill="#B5F7CC"/>
<path d="M27.2282 146.677C26.7547 147.032 19.2965 151.886 19.0598 165.263C18.1127 164.908 17.1656 164.553 16.3369 164.08C15.9818 163.843 15.6266 163.724 15.2715 163.488C15.6266 161.949 16.2185 159.344 17.5208 156.621C19.1781 152.952 22.2561 148.808 27.2282 146.677Z" fill="#6ECF91"/>
<path d="M17.4034 156.74C17.1667 159.936 16.5747 162.659 16.2196 164.198C15.8644 163.961 15.5093 163.843 15.1542 163.606C14.5622 163.251 14.0887 163.014 13.6152 162.659C17.9954 153.425 15.8645 147.269 13.9703 144.191C13.1416 142.771 12.3129 142.06 12.0762 141.824C13.0232 142.534 13.8519 143.363 14.4438 144.191C17.285 147.625 17.6402 152.478 17.4034 156.74Z" fill="#6ECF91"/>
<path d="M12.3128 147.506C12.076 147.743 8.52449 149.992 6.63035 155.675C6.15682 154.965 5.68328 154.373 5.32812 153.662C6.86711 151.176 9.11641 148.809 12.3128 147.506Z" fill="#6ECF91"/>
<path d="M11.839 161.239C11.3655 160.884 10.8919 160.41 10.4184 159.936C10.7736 157.569 10.1816 154.964 10.1816 154.964C11.6022 157.095 11.839 159.345 11.839 161.239Z" fill="#6ECF91"/>
<path d="M23.2031 166.329C23.2031 166.329 28.7672 163.369 27.3465 152.952C27.3465 152.952 30.4245 161.002 27.5833 167.039L23.2031 166.329Z" fill="#6ECF91"/>
<path d="M34.0963 164.908C33.9779 165.5 33.8595 166.211 33.7412 166.921C33.5044 166.921 33.386 166.921 33.2676 166.921C32.5573 167.039 31.847 167.039 31.1367 167.039C31.7286 165.027 34.4515 155.911 32.4389 151.176C32.4389 151.176 35.2801 155.674 34.0963 164.908Z" fill="#6ECF91"/>
<path d="M44.6312 156.267C42.9738 156.267 37.765 157.095 34.9238 166.684C34.5686 166.684 34.2135 166.803 33.8583 166.803C33.6215 166.803 33.5031 166.803 33.3848 166.803C33.6215 166.329 33.8583 165.619 34.2135 164.79C35.7525 161.357 39.0672 155.911 44.6312 156.267Z" fill="#6ECF91"/>
<path d="M43.9206 164.79C43.8022 164.79 43.6838 164.908 43.6838 164.908C43.4471 163.843 42.7368 163.133 42.5 162.896C43.2103 163.488 43.5654 164.08 43.9206 164.79Z" fill="url(#paint6_linear)"/>
<path d="M205.631 162.778C205.395 163.014 205.158 163.251 204.921 163.488C204.566 163.843 204.211 164.198 203.856 164.435C203.619 164.672 203.382 164.909 203.145 165.145C203.145 164.909 203.145 164.79 203.145 164.672C202.79 156.148 198.055 152.715 197.463 152.36C200.896 153.899 203.027 156.74 204.211 159.345C204.921 160.647 205.276 161.831 205.631 162.778Z" fill="#B5F7CC"/>
<path d="M206.343 161.949C206.106 162.186 205.87 162.541 205.514 162.778C205.278 163.014 205.041 163.251 204.804 163.488C204.567 162.422 204.331 160.883 204.212 159.344C203.975 155.675 204.567 151.294 207.882 148.927C207.527 149.282 203.028 153.662 206.343 161.949Z" fill="#B5F7CC"/>
<path d="M211.67 155.556C211.433 155.911 211.196 156.148 210.96 156.503C209.776 154.254 208.237 153.188 208 152.952C209.421 153.544 210.604 154.491 211.67 155.556Z" fill="#B5F7CC"/>
<path d="M200.305 165.974C200.305 165.974 196.398 163.843 197.464 156.622C197.464 156.622 195.333 162.304 197.345 166.447L200.305 165.974Z" fill="#B5F7CC"/>
<path d="M194.858 166.803C194.858 166.803 192.254 159.108 193.911 155.438C193.911 155.438 191.543 159.226 193.082 167.04L194.858 166.803Z" fill="#B5F7CC"/>
<path d="M193.438 167.039C193.438 167.039 190.952 158.279 185.033 158.989C185.033 158.989 190.124 158.161 192.373 167.158L193.438 167.039Z" fill="#B5F7CC"/>
<path d="M185.743 168.105C185.743 168.105 184.796 165.145 186.927 163.488C186.927 163.488 184.796 165.145 186.927 167.868L185.743 168.105Z" fill="#B5F7CC"/>
<path d="M31.1348 40.1318C31.1348 40.1318 31.2531 40.9605 31.6083 42.4995C31.7267 43.2098 31.9635 44.1569 32.0818 45.104C32.3186 46.1694 32.5554 47.2349 32.7921 48.5371C33.2657 51.0232 33.976 53.9827 34.5679 57.1791C34.923 58.7181 35.2782 60.3754 35.7517 62.0328C36.1069 63.6902 36.462 65.3475 36.9356 67.0049C37.4091 68.6623 37.7642 70.3197 38.2378 71.977C38.4745 72.8057 38.5929 73.6344 38.8297 74.3447C39.0665 75.1734 39.3032 75.8837 39.54 76.7124C40.0135 78.2514 40.3687 79.7903 40.8422 81.2109C41.1974 82.6315 41.6709 83.9338 42.0261 85.1176C42.8548 87.6036 43.4466 89.6162 43.9202 91.0368C44.3937 92.4574 44.6305 93.2861 44.6305 93.2861C44.6305 93.2861 44.2754 92.4574 43.8018 91.0368C43.3283 89.6162 42.4996 87.6037 41.6709 85.236C41.1974 84.0522 40.8422 82.7499 40.3687 81.3293C39.8952 79.9087 39.4216 78.4882 38.9481 76.9492C38.7113 76.2389 38.4745 75.4102 38.2378 74.5815C38.001 73.7528 37.7642 72.9241 37.5275 72.2138C37.0539 70.5565 36.6988 68.8991 36.2253 67.2417C35.7517 65.5843 35.3966 63.9269 35.0414 62.2696C34.6863 60.6122 34.3311 58.9549 33.976 57.4159C33.6208 55.8769 33.384 54.3378 33.1473 52.9172C32.9105 51.4966 32.5554 50.076 32.437 48.7738C31.9635 46.2878 31.7267 44.1569 31.4899 42.6179C31.3715 41.9076 31.2532 41.3157 31.2532 40.8422C31.2532 40.3686 31.1348 40.1318 31.1348 40.1318Z" fill="#6ECF91"/>
<path d="M42.3818 73.8715C42.3818 73.8715 42.145 73.398 41.9082 72.4509C41.5531 71.5038 41.1979 70.2017 40.7244 68.6627C40.4876 67.834 40.2509 67.0053 40.0141 66.1766C39.7773 65.2295 39.5405 64.2825 39.3038 63.3354C38.8302 61.3229 38.2383 59.1919 37.8832 57.061C37.6464 55.9956 37.4096 54.9302 37.2913 53.8647C37.0545 52.7993 36.9361 51.7338 36.8177 50.7867C36.4626 48.7742 36.3442 46.88 36.2258 45.2227C36.1074 44.394 36.1074 43.6837 36.1074 42.9734C36.1074 42.2631 36.1074 41.6712 36.1074 41.1977C36.1074 40.2506 36.1074 39.6587 36.1074 39.6587C36.1074 39.6587 36.1074 40.2506 36.2258 41.1977C36.2258 41.6712 36.2258 42.2631 36.3442 42.855C36.4626 43.5653 36.4626 44.2756 36.581 45.1043C36.6994 45.933 36.8177 46.7617 36.9361 47.7088C37.0545 48.6558 37.2913 49.6029 37.4096 50.5499C37.6464 51.497 37.7648 52.5625 38.0016 53.6279C38.2383 54.6934 38.4751 55.7589 38.7119 56.8243C39.1854 58.9552 39.6589 61.0861 40.1325 63.0986C40.606 65.1111 41.0795 66.8869 41.4347 68.5442C41.7898 71.7406 42.3818 73.8715 42.3818 73.8715Z" fill="#6ECF91"/>
<path d="M78.2511 15.5082C78.2511 15.5082 78.0143 14.5611 77.6592 13.1405C77.5408 12.4302 77.3041 11.6016 77.1857 10.6545C77.0673 9.70745 76.9489 8.76035 76.8305 7.81329C76.8305 7.33975 76.7121 6.8662 76.7121 6.39267C76.7121 5.91913 76.5938 5.44559 76.5938 4.97205C76.5938 4.02498 76.5938 3.19633 76.5938 2.48603C76.7121 1.77572 76.7121 1.18381 76.8305 0.710272C76.8305 0.236738 76.9489 0 76.9489 0C76.9489 0 76.9489 0.236738 76.9489 0.710272C76.9489 1.18381 77.0673 1.77572 77.0673 2.48603C77.0673 2.84118 77.1857 3.19633 77.1857 3.66986C77.1857 4.1434 77.1857 4.49852 77.3041 4.97205C77.3041 5.44559 77.4224 5.91913 77.4224 6.39267C77.4224 6.8662 77.5408 7.33975 77.5408 7.81329C77.7776 9.70742 77.896 11.7199 78.0144 13.1405C78.2511 14.5611 78.2511 15.5082 78.2511 15.5082Z" fill="url(#paint7_linear)"/>
<path d="M82.7504 21.1905C82.7504 21.1905 82.3952 20.0067 82.0401 18.2309C81.9217 17.2839 81.6849 16.2184 81.5665 15.153C81.4481 13.9691 81.3297 12.7853 81.2114 11.6015C81.2114 11.0096 81.093 10.4176 81.093 9.70729C81.093 9.11538 80.9746 8.52346 80.9746 7.93154C80.9746 7.33962 80.9746 6.74775 80.9746 6.27421C80.9746 5.80068 80.9746 5.20878 80.9746 4.73524C80.9746 3.78817 81.093 3.07784 81.093 2.48593C81.093 1.89401 81.2114 1.65723 81.2114 1.65723C81.2114 1.65723 81.2114 2.01239 81.2114 2.48593C81.2114 3.07784 81.3297 3.78817 81.3297 4.73524C81.3297 5.68231 81.4481 6.74773 81.5665 7.81319C81.5665 8.4051 81.6849 8.99702 81.6849 9.58894C81.6849 10.1809 81.8033 10.7728 81.8033 11.3647C81.9217 12.5485 82.0401 13.8507 82.1584 14.9162C82.2768 16.1 82.3952 17.1655 82.3952 17.9941C82.5136 18.9412 82.5136 19.6515 82.632 20.2435C82.7504 20.9538 82.7504 21.1905 82.7504 21.1905Z" fill="url(#paint8_linear)"/>
<path d="M164.198 33.7393L162.186 35.0415C162.186 35.0415 159.108 32.6739 162.068 30.1878C165.027 27.7018 170.118 31.9635 168.934 35.6334C167.75 39.3033 165.146 39.3033 164.198 39.3033C163.133 39.3033 162.896 38.9482 160.41 41.1975L158.279 39.0666C158.279 39.0666 160.529 36.5805 162.068 36.5805C163.607 36.5805 165.264 36.9357 166.329 35.5151C167.276 34.0945 165.856 31.9635 164.554 32.4371C163.015 32.6738 164.198 33.7393 164.198 33.7393Z" fill="#6ECF91"/>
<path d="M158.398 43.2102C157.687 43.9205 156.622 43.9205 155.912 43.2102C155.201 42.4999 155.201 41.4344 155.912 40.7241C156.622 40.0138 157.687 40.0138 158.398 40.7241C159.108 41.4344 159.108 42.6183 158.398 43.2102Z" fill="#6ECF91"/>
<path d="M135.312 7.9319L134.602 9.5893C134.602 9.5893 131.642 9.35256 132.589 6.51136C133.418 3.67015 138.39 4.38043 139.1 7.22163C139.811 9.94445 138.153 11.0099 137.561 11.4834C136.851 11.8386 136.614 11.7202 135.904 14.2063L133.655 13.7327C133.655 13.7327 134.128 11.2467 135.075 10.6548C136.022 10.0629 137.325 9.58933 137.325 8.28711C137.443 6.98489 135.667 6.15616 134.957 6.98485C134.128 7.81353 135.312 7.9319 135.312 7.9319Z" fill="#6ECF91"/>
<path d="M135.43 16.3374C135.312 17.0477 134.602 17.5212 133.891 17.2844C133.181 17.1661 132.708 16.4558 132.944 15.7455C133.063 15.0352 133.773 14.5616 134.483 14.7984C135.194 15.0352 135.667 15.6271 135.43 16.3374Z" fill="#6ECF91"/>
<path d="M131.642 110.333C131.642 110.333 143.954 119.804 146.795 120.751C149.636 121.698 135.667 147.032 135.667 147.032C135.667 147.032 135.548 156.029 136.969 158.279C138.39 160.528 139.455 161.357 139.1 160.291C138.745 159.226 137.798 157.687 138.153 157.332C138.508 156.976 140.047 158.16 140.757 160.291C141.468 162.422 143.362 165.263 144.309 164.908C145.256 164.553 144.782 163.606 144.782 163.606C144.782 163.606 145.611 164.553 145.966 163.606C146.321 162.659 145.019 158.989 145.019 158.989C145.019 158.989 146.203 156.384 145.137 154.49C144.072 152.596 141.586 148.334 141.586 148.334C141.586 148.334 162.777 123.592 159.343 118.147C156.029 112.583 149.281 105.361 146.085 102.402C142.888 99.442 132.115 94.1147 132.115 94.1147L126.314 105.48L131.642 110.333Z" fill="#FBD2CB"/>
<path d="M72.9252 72.2139C76.5951 74.5816 87.7231 89.2611 87.7231 89.2611L95.5364 95.8906L89.4989 116.371C89.4989 116.371 73.162 97.548 69.8472 92.3391C66.5325 87.1303 63.2177 71.2668 60.6133 62.5065C66.0589 61.3226 72.8068 72.2139 72.9252 72.2139Z" fill="#FBD2CB"/>
<path d="M65.4657 42.3811C65.4657 42.3811 75.5283 73.3976 80.6188 81.6845L74.9364 98.8501L67.4783 90.8C62.2694 82.158 59.7833 57.8894 59.1914 49.4841L65.3473 42.2627C65.4657 42.3811 65.4657 42.3811 65.4657 42.3811Z" fill="#FBD2CB"/>
<path d="M76.3579 35.9885C74.7005 34.9231 71.7409 37.1724 69.4916 40.0136C69.61 37.8827 69.7284 35.6334 69.7284 33.5025C69.7284 30.898 70.6755 25.9259 68.663 23.795C68.4262 23.5583 68.1894 23.5583 67.9527 23.6767C67.7159 23.6767 67.5975 23.6766 67.4791 23.9134C65.8218 26.7546 66.532 29.8326 66.532 32.9106C66.532 34.5679 66.0585 36.1069 65.585 37.6459C65.4666 35.6334 65.2298 33.6209 64.7563 31.7267C64.2827 29.1223 63.5725 25.334 61.9151 23.0847C61.9151 22.848 61.7967 22.6112 61.7967 22.3744C61.6783 22.1376 61.3232 21.9009 61.0864 22.1376C58.9555 23.6766 59.9026 26.3995 60.2577 28.7671C60.2577 29.1223 60.3761 29.4774 60.3761 29.8326C60.4945 31.4899 60.7313 33.1473 60.8496 34.9231C60.8496 35.6334 60.8496 36.3436 60.968 36.9356C60.1393 32.9105 58.9555 28.8855 56.8246 25.8076C56.7062 25.6892 56.5878 25.5708 56.4694 25.5708C56.2327 25.4524 55.9959 25.4524 55.8775 25.8076C54.6937 28.8855 56.2327 31.3716 56.943 34.4495C57.0613 35.0415 57.2981 35.8702 57.2981 36.4621C55.9959 33.8576 53.9834 31.0164 51.9709 29.3591C51.6157 29.1223 51.1422 30.1877 51.0238 30.6613C50.6686 33.1473 52.7995 35.2783 53.9834 37.2908C54.5753 38.4746 54.9304 39.7768 55.2856 41.1974C55.1672 43.8019 55.5224 46.5246 56.8246 48.7739C57.4165 49.8394 58.8371 50.5497 60.2577 51.4968C60.7313 52.5623 61.0864 56.4689 61.3232 58.1263C63.3357 57.5343 66.4137 56.7056 68.5446 56.7056C68.5446 55.6402 67.9526 54.5747 67.8343 53.5093C67.5975 52.3254 67.3607 51.1416 67.0056 49.8394C67.4791 49.721 67.8342 49.6026 68.1894 49.3658C69.0181 48.8923 70.0835 48.3004 70.5571 47.3534C71.0306 46.5247 71.2674 45.696 71.2674 44.7489C71.9777 43.5651 72.5696 42.2629 73.5167 41.1974C74.5821 40.0136 77.3049 38.8297 77.1866 37.054C77.1866 36.4621 76.8314 35.9885 76.3579 35.9885Z" fill="#FBD2CB"/>
<path d="M109.268 87.604L107.848 92.576L115.661 102.994L124.54 95.2989L122.29 91.9841L120.16 87.3672L109.268 87.604Z" fill="#FDC3BA"/>
<path fill-rule="evenodd" clip-rule="evenodd" d="M79.9099 68.0705C76.3584 66.7683 73.7539 63.2168 73.7539 59.0733C73.7539 55.5218 75.648 52.4438 78.3709 50.7865C78.2525 49.721 78.1341 48.774 78.1341 47.7085C78.1341 36.6989 87.7232 27.8201 99.9167 27.2282C102.048 23.4399 106.309 20.8354 111.4 20.8354C115.898 20.8354 119.923 22.9664 122.173 26.1627C123.357 26.0443 124.54 25.9259 125.843 25.9259C126.553 25.9259 127.145 25.926 127.855 26.0444C129.394 24.8605 131.17 24.2686 133.182 24.2686C137.681 24.2686 141.469 27.7017 142.18 32.2002C145.968 35.6334 148.336 40.1319 148.691 45.2224C153.426 46.2879 156.978 50.6681 156.978 55.9954C156.978 61.3226 153.426 65.7028 148.691 66.7683C149.046 67.8337 149.283 68.8991 149.283 70.083C149.283 75.4102 145.139 79.6721 140.049 79.6721C139.93 79.6721 139.694 79.6721 139.575 79.6721C137.799 83.2236 134.248 85.5913 130.223 85.5913C124.422 85.5913 119.687 80.6192 119.687 74.5816C119.687 71.622 120.871 68.8992 122.646 66.8867C119.687 66.5315 116.964 65.7028 114.478 64.519C112.702 65.7028 110.808 66.5315 108.677 67.2418C109.743 68.8992 110.216 70.9117 110.216 73.0426C110.216 79.0801 105.481 84.0523 99.6799 84.0523C96.3652 84.0523 93.2872 82.3949 91.393 79.9089C90.5644 80.1456 89.6173 80.3824 88.5519 80.3824C83.4614 80.3824 79.3179 76.1206 79.3179 70.7933C79.5547 69.7279 79.6731 68.8992 79.9099 68.0705Z" fill="#404040"/>
<path d="M90.0903 33.6211C91.7476 33.6211 93.2866 34.3314 94.3521 35.3968C95.4175 36.4623 96.1278 38.0013 96.1278 39.7771C96.1278 41.5528 95.4175 42.9734 94.3521 44.1573C93.2866 45.2227 91.7476 45.933 90.0903 45.933C88.4329 45.933 86.8939 45.2227 85.8285 44.1573C84.763 43.0918 84.0527 41.5528 84.0527 39.7771C84.0527 38.0013 84.763 36.5807 85.8285 35.3968C86.8939 34.3314 88.4329 33.6211 90.0903 33.6211ZM93.1682 36.5807C92.3396 35.752 91.2741 35.2785 90.0903 35.2785C88.9064 35.2785 87.841 35.752 87.0123 36.5807C86.1836 37.4094 85.7101 38.4748 85.7101 39.7771C85.7101 40.9609 86.1836 42.1447 87.0123 42.9734C87.841 43.8021 88.9064 44.2756 90.0903 44.2756C91.2741 44.2756 92.3396 43.8021 93.1682 42.9734C93.9969 42.1447 94.4705 41.0793 94.4705 39.7771C94.4705 38.5932 93.9969 37.4094 93.1682 36.5807Z" fill="#1BAA56"/>
<path fill-rule="evenodd" clip-rule="evenodd" d="M115.069 90.6817C126.434 90.6817 135.786 81.3294 135.786 69.9646V61.441C135.786 55.7586 131.169 51.1416 125.486 51.1416H104.651C98.9685 51.1416 94.3516 55.7586 94.3516 61.441V69.9646C94.4699 81.4478 103.704 90.6817 115.069 90.6817Z" fill="#FBD2CB"/>
<path fill-rule="evenodd" clip-rule="evenodd" d="M109.624 66.1763C110.808 66.1763 111.637 67.005 111.637 68.0705C111.637 69.1359 110.69 69.9646 109.624 69.9646C108.44 69.9646 107.612 69.1359 107.612 68.0705C107.493 67.005 108.44 66.1763 109.624 66.1763Z" fill="url(#paint9_linear)"/>
<path fill-rule="evenodd" clip-rule="evenodd" d="M120.396 66.5317C121.579 66.5317 122.408 67.3605 122.408 68.4259C122.408 69.4914 121.461 70.32 120.396 70.32C119.212 70.32 118.383 69.4914 118.383 68.4259C118.265 67.3605 119.212 66.5317 120.396 66.5317Z" fill="url(#paint10_linear)"/>
<path d="M135.786 63.0984V61.441C135.786 55.7586 131.169 51.1416 125.486 51.1416H104.651C98.9685 51.1416 94.3516 55.7586 94.3516 61.441V64.2822C94.3516 64.2822 98.2582 56.5873 100.981 56.1137C103.822 55.5218 105.598 56.9424 107.374 56.1137C109.15 55.285 121.935 55.5219 122.764 56.2322C123.592 56.8241 126.434 55.9954 127.854 55.4035C128.091 55.4035 128.683 61.0859 135.786 63.0984Z" fill="#FDC3BA"/>
<path fill-rule="evenodd" clip-rule="evenodd" d="M127.143 72.0957C129.393 72.0957 131.287 73.8714 131.287 76.0023C131.287 78.1333 129.393 79.9091 127.143 79.9091C124.894 79.9091 123 78.1333 123 76.0023C123 73.8714 124.776 72.0957 127.143 72.0957Z" fill="#E51685" fill-opacity="0.2"/>
<path fill-rule="evenodd" clip-rule="evenodd" d="M102.757 72.0957C105.006 72.0957 106.9 73.8714 106.9 76.0023C106.9 78.1333 105.006 79.9091 102.757 79.9091C100.507 79.9091 98.6133 78.1333 98.6133 76.0023C98.6133 73.8714 100.507 72.0957 102.757 72.0957Z" fill="#E51685" fill-opacity="0.2"/>
<path fill-rule="evenodd" clip-rule="evenodd" d="M104.178 45.3408H125.014C126.316 45.3408 127.381 46.4063 127.381 47.7085V53.0358C127.381 54.338 126.316 55.4034 125.014 55.4034H104.178C102.876 55.4034 101.811 54.338 101.811 53.0358V47.7085C101.929 46.4063 102.876 45.3408 104.178 45.3408Z" fill="#1BAA56"/>
<path d="M84.1703 53.7461C85.8277 53.7461 87.3667 54.4564 88.4322 55.5218C89.4976 56.5873 90.2079 58.1263 90.2079 59.9021C90.2079 61.5594 89.4976 63.0984 88.4322 64.2823C87.3667 65.3477 85.8277 66.058 84.1703 66.058C82.513 66.058 80.974 65.3477 79.9086 64.2823C78.8431 63.2168 78.1328 61.6778 78.1328 59.9021C78.1328 58.2447 78.8431 56.7057 79.9086 55.5218C80.974 54.4564 82.3946 53.7461 84.1703 53.7461ZM87.2483 56.7057C86.4196 55.877 85.3542 55.4035 84.1703 55.4035C82.9865 55.4035 81.9211 55.877 81.0924 56.7057C80.2637 57.5344 79.7902 58.5998 79.7902 59.9021C79.7902 61.2043 80.2637 62.2697 81.0924 63.0984C81.9211 63.9271 82.9865 64.4006 84.1703 64.4006C85.3542 64.4006 86.4196 63.9271 87.2483 63.0984C88.077 62.2697 88.5506 61.2043 88.5506 59.9021C88.5506 58.5998 88.077 57.5344 87.2483 56.7057Z" fill="#1BAA56"/>
<path d="M146.914 50.5498C148.572 50.5498 150.111 51.2601 151.176 52.3256C152.242 53.391 152.952 54.93 152.952 56.7058C152.952 58.3631 152.242 59.9021 151.176 61.086C150.111 62.1514 148.572 62.8617 146.914 62.8617C145.257 62.8617 143.718 62.1514 142.653 61.086C141.587 60.0205 140.877 58.4815 140.877 56.7058C140.877 55.0484 141.587 53.5094 142.653 52.3256C143.718 51.2601 145.257 50.5498 146.914 50.5498ZM149.992 53.6278C149.164 52.7991 148.098 52.3256 146.914 52.3256C145.731 52.3256 144.665 52.7991 143.837 53.6278C143.008 54.4565 142.534 55.522 142.534 56.8242C142.534 58.1264 143.008 59.1918 143.837 60.0205C144.665 60.8492 145.731 61.3228 146.914 61.3228C148.098 61.3228 149.164 60.8492 149.992 60.0205C150.821 59.1918 151.295 58.1264 151.295 56.8242C151.295 55.522 150.821 54.3381 149.992 53.6278Z" fill="#1BAA56"/>
<path d="M132.944 28.0566C134.601 28.0566 136.14 28.7669 137.206 29.8324C138.271 30.8978 138.981 32.4368 138.981 34.2126C138.981 35.87 138.271 37.409 137.206 38.5928C136.14 39.6583 134.601 40.3686 132.944 40.3686C131.286 40.3686 129.747 39.6583 128.682 38.5928C127.617 37.5274 126.906 35.9884 126.906 34.2126C126.906 32.5552 127.617 31.0162 128.682 29.8324C129.747 28.7669 131.168 28.0566 132.944 28.0566ZM136.022 31.1347C135.193 30.306 134.128 29.8324 132.944 29.8324C131.76 29.8324 130.695 30.306 129.866 31.1347C129.037 31.9633 128.564 33.0288 128.564 34.331C128.564 35.5149 129.037 36.6986 129.866 37.5273C130.695 38.356 131.76 38.8296 132.944 38.8296C134.128 38.8296 135.193 38.356 136.022 37.5273C136.85 36.6986 137.324 35.6332 137.324 34.331C137.324 33.0288 136.85 31.9633 136.022 31.1347Z" fill="#1BAA56"/>
<path fill-rule="evenodd" clip-rule="evenodd" d="M105.242 42.3813H123.828V53.391C123.828 55.2851 122.289 56.8242 120.395 56.8242H108.675C106.781 56.8242 105.242 55.2851 105.242 53.391V42.3813Z" fill="#404040"/>
<path fill-rule="evenodd" clip-rule="evenodd" d="M91.7478 65.4663C95.1809 65.4663 97.9037 68.3075 97.9037 71.7406C97.9037 75.1737 95.1809 78.0149 91.7478 78.0149C88.3146 78.0149 85.5918 75.1737 85.5918 71.7406C85.5918 68.3075 88.3146 65.4663 91.7478 65.4663Z" fill="#404040"/>
<path fill-rule="evenodd" clip-rule="evenodd" d="M138.154 65.5845C141.587 65.5845 144.31 68.4257 144.31 71.8588C144.31 75.2919 141.587 78.1332 138.154 78.1332C134.721 78.1332 131.998 75.2919 131.998 71.8588C131.998 68.3073 134.721 65.5845 138.154 65.5845Z" fill="#404040"/>
<path fill-rule="evenodd" clip-rule="evenodd" d="M134.84 47.2349C138.273 47.2349 140.995 50.0761 140.995 53.5092C140.995 56.9423 138.273 59.7836 134.84 59.7836C131.406 59.7836 128.684 56.9423 128.684 53.5092C128.684 50.0761 131.406 47.2349 134.84 47.2349Z" fill="#404040"/>
<path fill-rule="evenodd" clip-rule="evenodd" d="M94.4695 46.998C97.5475 46.998 100.152 49.6025 100.152 52.6805C100.152 55.8769 97.6659 58.3629 94.4695 58.3629C91.3915 58.3629 88.7871 55.7585 88.7871 52.6805C88.7871 49.6025 91.2731 46.998 94.4695 46.998Z" fill="#404040"/>
<path d="M118.738 80.1458C117.081 76.2391 111.399 78.1333 110.452 81.6848C109.623 84.526 113.293 86.1834 115.542 85.8282C118.383 85.4731 119.922 82.7502 118.738 80.1458Z" fill="#E51685" fill-opacity="0.2"/>
<path d="M111.162 80.1456C112.109 80.3824 113.293 80.3825 114.95 80.2641C116.608 80.1457 117.673 79.7905 118.502 79.5537C116.844 76.9493 112.938 77.8964 111.162 80.1456Z" fill="white"/>
<path d="M125.723 64.8743C125.486 64.9927 125.249 64.8743 125.131 64.6375C124.657 63.6904 123.829 62.8618 122.763 62.5066C121.698 62.1515 120.632 62.2699 119.567 62.7434C118.857 63.0986 118.265 63.5721 117.91 64.2824C117.791 64.5191 117.436 64.6375 117.199 64.5192C116.962 64.4008 116.844 64.0456 116.962 63.8088C117.436 62.9801 118.265 62.2699 119.093 61.9147C120.277 61.3228 121.698 61.2044 123.118 61.6779C124.421 62.1515 125.486 63.0985 126.078 64.2824C126.196 64.4008 126.078 64.7559 125.723 64.8743C125.841 64.8743 125.841 64.8743 125.723 64.8743Z" fill="url(#paint11_linear)"/>
<path d="M103.349 64.8743C103.586 64.9927 103.822 64.8743 103.941 64.6375C104.414 63.6904 105.243 62.8618 106.308 62.5066C107.374 62.1515 108.439 62.2699 109.505 62.7434C110.215 63.0986 110.807 63.5721 111.162 64.2824C111.28 64.5191 111.636 64.6375 111.872 64.5192C112.109 64.4008 112.228 64.0456 112.109 63.8088C111.636 62.9801 110.807 62.2699 109.978 61.9147C108.794 61.3228 107.374 61.2044 105.953 61.6779C104.651 62.1515 103.586 63.0985 102.994 64.2824C102.875 64.4008 102.994 64.7559 103.349 64.8743C103.23 64.8743 103.23 64.8743 103.349 64.8743Z" fill="url(#paint12_linear)"/>
<path d="M147.625 153.543C147.27 150.229 146.796 146.795 146.323 143.481C146.323 143.362 146.323 143.126 146.204 143.007C146.204 143.007 146.204 143.007 146.204 142.889V142.77C146.086 141.587 145.849 140.403 145.731 139.219C145.612 138.509 145.494 137.68 145.376 136.97C145.257 136.023 145.139 135.076 144.902 134.128C144.902 133.773 144.784 133.418 144.784 133.063C144.784 132.826 144.665 132.589 144.665 132.353C144.547 131.524 144.429 130.814 144.31 130.103C144.31 129.867 144.192 129.63 144.192 129.393C143.6 125.486 142.89 121.698 142.298 118.147C142.298 118.028 142.179 117.792 142.179 117.673C142.179 117.673 142.179 117.555 142.061 117.318C141.587 114.714 140.995 112.346 140.522 110.097C140.522 109.978 140.404 109.86 140.404 109.741C140.404 109.623 140.404 109.623 140.404 109.505C140.404 109.386 140.404 109.386 140.404 109.268C139.22 104.533 138.036 100.744 136.852 98.2583C136.615 97.7847 136.379 97.3112 136.142 96.956C136.142 96.8376 136.023 96.8376 136.023 96.7192C135.905 96.4825 135.787 96.3641 135.668 96.2457C135.668 96.2457 135.668 96.2457 135.668 96.1273L135.55 96.009C135.431 95.8906 135.195 95.7722 135.076 95.6538C135.076 95.6538 135.076 95.6538 134.958 95.5354C134.84 95.5354 134.84 95.417 134.721 95.417C134.366 95.2987 134.129 95.1803 133.892 95.0619C133.419 94.9435 133.064 94.7067 132.59 94.5883C132.59 94.5883 132.472 94.5884 132.472 94.47H132.353C132.235 94.47 132.235 94.3516 132.117 94.3516C131.525 94.1148 130.933 93.9964 130.459 93.7596C130.104 93.6413 129.749 93.5229 129.512 93.5229C129.157 93.4045 128.92 93.4045 128.565 93.2861C128.328 93.2861 128.21 93.1677 127.973 93.1677C127.618 93.0493 127.381 93.0494 127.026 92.931C126.671 92.8126 126.434 92.8126 126.079 92.6942C125.724 92.5758 125.369 92.5758 125.014 92.4574C124.895 92.4574 124.659 92.4575 124.54 92.3391C123.475 92.2207 122.764 92.1023 122.528 92.1023C122.054 92.931 121.462 93.6413 120.752 94.2332C118.976 95.6538 116.727 96.3641 115.661 96.6009C114.359 96.2457 110.453 95.1802 108.795 92.5758C108.795 92.5758 108.795 92.4574 108.677 92.4574C108.558 92.3391 108.558 92.1023 108.44 91.9839C108.085 91.9839 107.375 92.1023 106.427 92.2207C106.309 92.2207 106.072 92.2207 105.954 92.3391C105.599 92.3391 105.244 92.4574 104.888 92.5758C104.652 92.6942 104.297 92.6942 103.941 92.6942C103.586 92.8126 103.349 92.8126 102.994 92.931C102.758 92.931 102.639 93.0494 102.402 93.0494C102.047 93.1678 101.81 93.1678 101.455 93.2861C101.1 93.4045 100.745 93.5229 100.39 93.5229C99.798 93.6413 99.3244 93.8781 98.7325 94.1148C98.1406 94.3516 97.5487 94.5884 96.9568 94.8251C96.72 94.9435 96.3648 95.0619 96.1281 95.1803C96.0097 95.1803 96.0097 95.2987 95.8913 95.2987C95.8913 95.2987 95.8913 95.2987 95.7729 95.2987C95.6546 95.4171 95.5362 95.417 95.5362 95.5354L95.4178 95.6538C95.2994 95.7722 95.2994 95.7722 95.181 95.8906C95.0626 96.009 94.9442 96.2457 94.8259 96.3641C94.8259 96.4825 94.7075 96.4825 94.7075 96.6009C94.4707 96.956 94.234 97.4295 93.9972 97.9031C92.8134 100.389 91.6295 104.177 90.4457 108.913C90.4457 108.913 90.4457 109.031 90.4457 109.15C90.4457 109.15 90.4457 109.268 90.4457 109.386C90.4457 109.386 90.4457 109.623 90.3273 109.741C89.9721 111.517 89.4986 113.293 89.1435 115.305C89.0251 115.897 88.9067 116.489 88.7883 117.081C88.7883 117.318 88.6699 117.436 88.6699 117.436C87.8412 122.053 87.0126 127.025 86.1839 132.116C86.1839 132.353 86.0655 132.589 86.0655 132.826C85.8287 134.128 85.7103 135.431 85.4736 136.733C85.3552 137.443 85.2368 138.272 85.1184 138.982C85 140.166 84.7633 141.35 84.6449 142.415C84.6449 142.652 84.5265 142.889 84.5265 143.126C84.053 146.559 83.6978 149.873 83.2243 153.188V153.307C83.1059 154.49 82.9875 155.674 82.8691 156.74C94.4707 158.871 100.272 167.631 114.596 174.142C115.069 174.379 115.543 174.616 116.135 174.852C124.067 178.285 134.366 180.89 149.401 181.6C148.454 173.55 147.98 157.332 147.625 153.543Z" fill="#1BAA56"/>
<path d="M106.781 146.322C107.255 148.571 108.912 155.793 110.333 161.83L142.77 152.596C140.757 147.032 138.153 140.285 137.324 137.443C135.904 132.945 131.05 115.306 131.05 115.306C131.05 115.306 128.327 115.424 125.012 116.371C121.698 117.318 108.912 120.278 107.255 121.462C105.597 122.527 100.98 130.34 100.98 130.34C102.638 139.219 105.953 142.179 106.781 146.322Z" fill="white"/>
<path d="M106.783 146.322C107.256 148.571 108.914 155.792 110.334 161.83L112.702 161.12C111.281 156.74 108.795 152.359 109.269 147.742C109.151 147.387 109.151 146.914 109.624 146.677C112.702 144.664 115.78 143.244 119.213 142.297C119.687 142.178 120.279 142.415 120.279 142.889C120.634 145.256 118.621 149.045 121.581 150.11C122.646 150.465 123.712 151.649 123.948 152.833C124.304 154.254 124.304 156.621 125.132 157.568L128.447 156.621C130.578 154.845 132.472 152.833 134.958 151.531C135.313 151.412 135.787 151.294 136.024 151.649C136.734 152.359 137.326 153.07 138.036 153.898L142.535 152.596C140.522 147.032 137.918 140.284 137.089 137.443C136.616 136.022 135.787 133.3 134.958 130.34C134.603 130.932 134.248 131.524 133.656 131.997C130.815 134.247 127.382 134.839 124.659 137.325C123.001 138.864 121.344 140.521 119.332 141.468C116.609 142.77 111.045 145.493 107.967 143.954C105.244 142.534 103.705 137.561 103.113 134.839C102.995 134.247 103.35 133.773 103.942 133.655C106.191 133.418 108.559 133.773 110.69 132.589C110.808 132.589 110.808 132.589 110.926 132.471C110.571 129.63 110.334 126.67 110.334 123.829C110.334 121.58 111.4 120.396 112.82 119.449C109.979 120.277 107.612 120.988 106.901 121.461C105.244 122.527 100.627 130.34 100.627 130.34C102.639 139.219 105.954 142.178 106.783 146.322Z" fill="#F6F6F6"/>
<path d="M108.085 121.106C107.611 121.225 107.374 121.462 107.138 121.58C105.48 122.645 100.863 130.459 100.863 130.459C100.863 130.577 100.863 130.695 100.863 130.695C103.586 131.998 106.546 132.234 109.505 132.234C108.795 128.446 108.44 124.776 108.085 121.106Z" fill="#F6F6F6"/>
<path d="M145.019 128.446L139.811 134.129L141.823 142.534L146.203 142.652L154.017 132.116L145.019 128.446Z" fill="#FBD2CB"/>
<path d="M147.624 139.929C146.795 139.219 146.677 135.667 145.73 135.904C145.256 135.667 144.546 134.01 144.191 134.128C143.717 134.247 143.244 133.063 142.77 133.181C142.415 132.116 141.705 132.826 141.231 131.879C140.403 130.222 139.1 129.867 137.561 129.393C136.378 129.038 134.839 128.328 134.839 128.328L135.549 131.169C131.761 131.879 122.882 135.786 122.408 138.153C122.29 138.153 122.172 138.272 122.172 138.509C122.527 140.64 124.894 139.101 125.96 138.272C126.907 137.562 127.854 136.851 128.801 136.378C129.867 136.023 130.932 135.786 131.997 135.549C132.708 135.431 133.418 135.312 134.128 135.312C132.471 136.259 130.695 136.97 129.038 137.798C126.433 138.982 124.658 141.231 122.527 143.126C122.408 143.126 122.408 143.244 122.29 143.244C121.343 145.493 124.303 144.665 125.25 144.073C126.552 143.362 127.854 142.415 129.156 141.587C130.814 140.403 132.945 139.811 134.957 139.337C134.365 139.811 133.773 140.166 133.3 140.64C131.997 141.587 130.577 142.179 129.156 143.007C127.499 143.954 125.131 145.375 124.776 147.387C124.776 147.506 124.776 147.624 124.894 147.624C124.894 147.743 125.013 147.979 125.131 147.979C127.025 148.808 128.446 147.032 129.748 146.085C131.287 145.02 132.945 144.309 134.72 143.599C133.773 144.428 132.826 145.256 131.761 146.085C130.222 147.269 129.275 147.269 128.564 149.282C128.564 149.4 128.564 149.4 128.564 149.4C128.564 149.518 128.564 149.755 128.683 149.873C129.985 151.057 131.642 149.163 132.708 148.453C134.365 147.269 135.075 146.914 136.733 145.612C138.272 146.914 140.639 147.269 142.534 146.204C144.191 145.257 146.085 145.02 146.203 142.77C146.914 142.415 148.216 140.521 147.624 139.929Z" fill="#FBD2CB"/>
<defs>
<linearGradient id="paint0_linear" x1="74.8444" y1="122.497" x2="74.8444" y2="150.121" gradientUnits="userSpaceOnUse">
<stop stop-color="#EEFFF3"/>
<stop offset="0.2449" stop-color="#E9FEF0"/>
<stop offset="0.5408" stop-color="#DAFCE5"/>
<stop offset="0.8617" stop-color="#C2F9D5"/>
<stop offset="1" stop-color="#B5F7CC"/>
</linearGradient>
<linearGradient id="paint1_linear" x1="28.8844" y1="68.551" x2="61.8233" y2="68.551" gradientUnits="userSpaceOnUse">
<stop stop-color="#EEFFF3"/>
<stop offset="0.2449" stop-color="#E9FEF0"/>
<stop offset="0.5408" stop-color="#DAFCE5"/>
<stop offset="0.8617" stop-color="#C2F9D5"/>
<stop offset="1" stop-color="#B5F7CC"/>
</linearGradient>
<linearGradient id="paint2_linear" x1="210.894" y1="65.7099" x2="152.447" y2="65.7099" gradientUnits="userSpaceOnUse">
<stop stop-color="#EEFFF3"/>
<stop offset="0.2449" stop-color="#E9FEF0"/>
<stop offset="0.5408" stop-color="#DAFCE5"/>
<stop offset="0.8617" stop-color="#C2F9D5"/>
<stop offset="1" stop-color="#B5F7CC"/>
</linearGradient>
<linearGradient id="paint3_linear" x1="75.1893" y1="39.1033" x2="121.02" y2="39.1033" gradientUnits="userSpaceOnUse">
<stop stop-color="#EEFFF3"/>
<stop offset="0.2449" stop-color="#E9FEF0"/>
<stop offset="0.5408" stop-color="#DAFCE5"/>
<stop offset="0.8617" stop-color="#C2F9D5"/>
<stop offset="1" stop-color="#B5F7CC"/>
</linearGradient>
<linearGradient id="paint4_linear" x1="75.1881" y1="38.3591" x2="121.018" y2="38.3591" gradientUnits="userSpaceOnUse">
<stop stop-color="#EEFFF3"/>
<stop offset="0.2449" stop-color="#E9FEF0"/>
<stop offset="0.5408" stop-color="#DAFCE5"/>
<stop offset="0.8617" stop-color="#C2F9D5"/>
<stop offset="1" stop-color="#B5F7CC"/>
</linearGradient>
<linearGradient id="paint5_linear" x1="83.5472" y1="37.7142" x2="113.55" y2="37.7142" gradientUnits="userSpaceOnUse">
<stop stop-color="#EEFFF3"/>
<stop offset="0.2449" stop-color="#E9FEF0"/>
<stop offset="0.5408" stop-color="#DAFCE5"/>
<stop offset="0.8617" stop-color="#C2F9D5"/>
<stop offset="1" stop-color="#B5F7CC"/>
</linearGradient>
<linearGradient id="paint6_linear" x1="42.7149" y1="140.139" x2="43.3934" y2="175.155" gradientUnits="userSpaceOnUse">
<stop stop-color="#A0E0B3"/>
<stop offset="0.3309" stop-color="#9BDCAE"/>
<stop offset="0.7301" stop-color="#8DD09F"/>
<stop offset="1" stop-color="#80C491"/>
</linearGradient>
<linearGradient id="paint7_linear" x1="76.7517" y1="7.69279" x2="78.3036" y2="7.69279" gradientUnits="userSpaceOnUse">
<stop stop-color="#EEFFF3"/>
<stop offset="0.2449" stop-color="#E9FEF0"/>
<stop offset="0.5408" stop-color="#DAFCE5"/>
<stop offset="0.8617" stop-color="#C2F9D5"/>
<stop offset="1" stop-color="#B5F7CC"/>
</linearGradient>
<linearGradient id="paint8_linear" x1="80.9348" y1="11.4582" x2="82.736" y2="11.4582" gradientUnits="userSpaceOnUse">
<stop stop-color="#EEFFF3"/>
<stop offset="0.2449" stop-color="#E9FEF0"/>
<stop offset="0.5408" stop-color="#DAFCE5"/>
<stop offset="0.8617" stop-color="#C2F9D5"/>
<stop offset="1" stop-color="#B5F7CC"/>
</linearGradient>
<linearGradient id="paint9_linear" x1="107.543" y1="68.0888" x2="111.668" y2="68.0888" gradientUnits="userSpaceOnUse">
<stop stop-color="#29323C"/>
<stop offset="1" stop-color="#485563"/>
</linearGradient>
<linearGradient id="paint10_linear" x1="118.282" y1="68.4193" x2="122.407" y2="68.4193" gradientUnits="userSpaceOnUse">
<stop stop-color="#29323C"/>
<stop offset="1" stop-color="#485563"/>
</linearGradient>
<linearGradient id="paint11_linear" x1="116.922" y1="63.071" x2="126.155" y2="63.071" gradientUnits="userSpaceOnUse">
<stop stop-color="#29323C"/>
<stop offset="1" stop-color="#485563"/>
</linearGradient>
<linearGradient id="paint12_linear" x1="102.925" y1="63.071" x2="112.159" y2="63.071" gradientUnits="userSpaceOnUse">
<stop stop-color="#29323C"/>
<stop offset="1" stop-color="#485563"/>
</linearGradient>
</defs>
</svg>
