<svg width="24" height="24" viewBox="0 0 24 24" fill="none" xmlns="http://www.w3.org/2000/svg">
<path fill-rule="evenodd" clip-rule="evenodd" d="M12 2C10.0222 2 8.08879 2.58649 6.4443 3.6853C4.79981 4.78412 3.51809 6.3459 2.76121 8.17317C2.00433 10.0004 1.8063 12.0111 2.19215 13.9509C2.578 15.8907 3.53041 17.6725 4.92894 19.0711C6.32746 20.4696 8.10929 21.422 10.0491 21.8079C11.9889 22.1937 13.9996 21.9957 15.8268 21.2388C17.6541 20.4819 19.2159 19.2002 20.3147 17.5557C21.4135 15.9112 22 13.9778 22 12C22 10.6868 21.7413 9.38642 21.2388 8.17317C20.7363 6.95991 19.9997 5.85752 19.0711 4.92893C18.1425 4.00035 17.0401 3.26375 15.8268 2.7612C14.6136 2.25866 13.3132 2 12 2ZM10.5266 15.4389C10.6133 15.4747 10.7062 15.4931 10.8 15.493C10.8944 15.4934 10.988 15.4752 11.0754 15.4393C11.1627 15.4035 11.2421 15.3507 11.309 15.284L16.866 9.726C16.9999 9.59206 17.0752 9.41041 17.0752 9.221C17.0752 9.03159 16.9999 8.84993 16.866 8.716C16.732 8.58206 16.5504 8.50682 16.361 8.50682C16.1716 8.50682 15.9899 8.58206 15.856 8.716L10.804 13.769L8.14398 11.109C8.01005 10.9751 7.82839 10.8998 7.63898 10.8998C7.44957 10.8998 7.26792 10.9751 7.13398 11.109C7.00005 11.2429 6.9248 11.4246 6.9248 11.614C6.9248 11.8034 7.00005 11.9851 7.13398 12.119L10.295 15.284C10.3612 15.3504 10.44 15.403 10.5266 15.4389Z" fill="#1BAA56"/>
</svg>
