<svg width="224" height="170" viewBox="0 0 224 170" fill="none" xmlns="http://www.w3.org/2000/svg">
<path d="M212.88 141.007C212.753 141.134 212.627 141.387 212.5 141.513C212.5 141.639 212.374 141.64 212.374 141.766C212.121 142.145 211.868 142.525 211.615 142.904C211.362 143.283 211.109 143.663 210.73 144.042L210.603 144.169C210.097 144.801 209.591 145.433 209.086 146.066C209.086 146.066 209.086 146.192 208.959 146.192C208.959 146.192 208.959 146.319 208.833 146.319C208.453 146.824 208.074 147.204 207.694 147.71C207.315 148.089 207.062 148.469 206.683 148.848C206.43 149.101 206.177 149.48 205.924 149.733L205.798 149.86C205.292 150.365 204.786 150.871 204.28 151.377C203.774 151.883 203.142 152.389 202.636 152.895C202.13 153.274 201.751 153.78 201.245 154.159C200.739 154.539 200.233 154.918 199.854 155.424C199.474 155.93 198.842 156.183 198.336 156.562C196.313 158.08 194.163 159.471 191.887 160.736C191.381 161.115 190.748 161.368 190.243 161.621C189.484 162 188.725 162.38 187.966 162.759C187.966 162.759 187.966 162.759 187.84 162.759C187.207 163.012 186.575 163.391 185.943 163.644C185.69 163.771 185.437 163.897 185.184 163.897C184.299 164.276 183.414 164.656 182.528 164.909C182.022 165.035 181.517 165.288 181.011 165.415C180.758 165.541 180.505 165.668 180.125 165.668C179.367 165.92 178.608 166.173 177.849 166.3C177.09 166.553 176.205 166.806 175.32 166.932C175.193 166.932 175.193 166.932 175.067 166.932C173.296 167.312 171.4 167.691 169.503 167.944C169.376 167.944 169.376 167.944 169.376 167.944C169.25 167.944 168.997 167.944 168.87 168.07C168.364 168.197 167.732 168.197 167.226 168.323C163.685 168.829 160.144 168.956 156.224 168.956C155.212 168.956 154.327 168.956 153.315 168.956C102.477 168.197 100.833 145.686 79.7134 143.663C73.5167 143.031 65.5494 144.295 54.0412 148.342C53.2824 148.595 52.5237 148.848 51.7649 149.227C51.3855 149.354 50.8797 149.607 50.5003 149.733C50.3738 149.733 50.2473 149.86 50.1209 149.86C42.4066 152.895 35.5776 154.159 29.7603 154.159C29.2544 154.159 28.622 154.159 28.1162 154.159C27.8633 154.159 27.7368 154.159 27.4839 154.159C26.978 154.159 26.4722 154.159 25.9664 154.033C25.3341 153.906 24.8281 153.906 24.3223 153.78C24.1958 153.78 24.0694 153.78 24.0694 153.78C23.5636 153.654 23.0577 153.654 22.5518 153.527C22.046 153.401 21.5401 153.274 20.9078 153.148H20.7813C20.5284 153.021 20.2755 153.021 20.0226 152.895C-6.02893 144.295 -4.76434 100.792 12.9406 78.9135C21.5401 68.2906 33.6806 56.0237 48.4769 45.2743C50.1209 44.1361 51.6384 42.9979 53.4089 41.8597C53.9148 41.4803 54.5471 41.1009 55.053 40.7215C56.697 39.7098 58.341 38.5716 60.1115 37.5599C99.6946 13.6583 153.821 4.30005 207.947 58.5529C226.791 77.6489 229.826 115.082 212.88 141.007Z" fill="#EDF9F4"/>
<path d="M35.704 111.541L36.4628 121.532L33.5542 125.579C33.5542 125.579 35.3246 125.705 37.2216 125.705C39.4979 125.705 40.8891 125.326 40.8891 125.326L37.9804 121.532L38.3598 111.541H35.704Z" fill="url(#paint0_linear)"/>
<path d="M51.8914 111.541C51.8914 111.541 44.5564 112.553 36.9686 112.553C32.4159 112.553 28.2426 112.174 25.5869 111.921C23.6899 111.668 22.4253 111.541 22.4253 111.541L27.3574 97.1245L44.5564 95.6069L47.0857 95.354L51.8914 111.541Z" fill="#6ECF91"/>
<path d="M23.1841 109.265L23.6899 107.747C23.6899 107.747 30.1396 108.506 36.4628 108.506C43.7976 108.506 50.7531 108.126 50.7531 108.126L51.1325 109.644C51.1325 109.644 43.1653 110.403 36.3362 110.403C30.8983 110.403 23.1841 109.265 23.1841 109.265Z" fill="#CBFFE9"/>
<path d="M24.3222 105.977C24.3222 105.977 32.0366 106.609 36.7157 106.609C43.4183 106.735 50.2473 105.977 50.2473 105.977L50.5002 106.735C50.5002 106.735 41.7742 107.241 36.5892 107.241C31.6571 107.241 24.1958 106.229 24.1958 106.229L24.3222 105.977Z" fill="#CBFFE9"/>
<path d="M55.5587 125.326L54.8 138.604L54.6735 139.869L54.1677 148.595C53.4089 148.848 52.6501 149.101 51.8913 149.48C51.5119 149.607 51.0061 149.86 50.6267 149.986C50.5002 149.986 50.3737 150.113 50.2472 150.113C37.6009 155.045 27.7368 155.55 20.0225 153.021L19.3902 138.351L18.8843 125.452H55.5587V125.326Z" fill="#6ECF91"/>
<path d="M53.2826 136.707L53.7885 126.97L20.908 127.096V136.202L53.2826 136.707Z" fill="#CBFFE9"/>
<path d="M19.3901 137.34L54.7999 138.604L54.6734 139.743L19.3901 138.225V137.34Z" fill="#CBFFE9"/>
<path d="M52.1443 144.928L51.8914 149.354C51.512 149.48 51.0061 149.733 50.6268 149.86L50.5002 144.928H52.1443Z" fill="#CBFFE9"/>
<path d="M215.662 83.0869L214.524 106.483L212.88 141.007C212.247 142.019 211.488 143.031 210.856 144.042C210.35 144.801 209.718 145.56 209.086 146.192C208.706 146.698 208.327 147.204 207.821 147.583C207.442 147.963 207.189 148.342 206.809 148.722C206.556 148.974 206.303 149.227 206.05 149.607C205.039 150.745 203.901 151.883 202.762 152.895C199.095 156.183 194.922 159.218 190.243 161.621C184.299 164.782 177.343 167.059 169.755 168.197L169.629 168.323V168.197C169.503 168.197 169.25 168.197 169.123 168.323C168.617 168.45 167.985 168.45 167.479 168.576L162.421 81.4429L215.662 83.0869Z" fill="#CBFFE9"/>
<path d="M213.638 84.4781L212.627 106.483L212.5 107.874L211.488 128.108L211.362 129.499L210.73 144.042C210.224 144.801 209.591 145.56 208.959 146.192C208.58 146.698 208.2 147.204 207.694 147.583C207.315 147.963 207.062 148.342 206.683 148.722C206.43 148.974 206.177 149.227 205.924 149.607C204.912 150.745 203.774 151.883 202.636 152.895C198.968 156.183 194.795 159.218 190.116 161.621C184.172 164.782 177.217 167.059 169.629 168.197L169.503 168.323V168.197L168.491 153.021L168.364 151.124V150.492L168.238 148.216L166.973 128.993L166.847 127.096L165.582 107.747L165.456 104.965L164.191 84.3516H213.638V84.4781Z" fill="#6ECF91"/>
<path d="M190.116 161.494C184.172 164.656 177.217 166.932 169.629 168.07L177.47 161.494H190.116Z" fill="#FFE2D7"/>
<path d="M212.374 128.108L165.709 127.096V128.993L212.374 129.499V128.108Z" fill="#CBFFE9"/>
<path d="M214.523 106.482L164.064 104.965L164.697 107.874H212.879L214.523 106.482Z" fill="#CBFFE9"/>
<path opacity="0.36" d="M206.051 149.607C205.039 150.745 203.901 151.883 202.762 152.895L177.47 156.689L168.491 153.148L168.364 151.251H168.87L177.47 150.872L206.051 149.607Z" fill="#590800"/>
<path d="M206.809 148.848C206.556 149.101 206.303 149.354 206.05 149.733C205.039 150.872 203.901 152.01 202.762 153.021C199.095 156.309 194.922 159.345 190.243 161.747C184.299 164.909 177.343 167.185 169.755 168.324L169.629 168.45V168.324C169.503 168.324 169.25 168.324 169.123 168.45L167.606 150.745H168.491H168.87L177.723 150.366L206.809 148.848Z" fill="#CBFFE9"/>
<path d="M193.404 151.63L193.151 152.895H181.39L181.011 151.63H193.404Z" fill="#6ECF91"/>
<path d="M93.6243 79.5459C93.6243 79.5459 74.9077 100.539 73.7695 111.794C72.6314 123.049 91.4744 107.241 91.4744 107.241L93.6243 79.5459Z" fill="#F9CBC3"/>
<path d="M79.0811 93.5833C79.0811 93.5833 76.6783 85.1103 73.5167 82.0752C70.3551 78.9136 66.9406 73.6022 66.4347 71.8317C65.9289 70.0612 57.5822 65.0026 58.4675 73.2227C59.2262 81.4429 63.779 85.3632 63.779 85.3632C63.779 85.3632 62.135 86.5014 61.3762 86.8808C60.6174 87.2602 56.9499 87.766 56.5705 90.2953C56.1911 92.8246 56.5705 96.3656 56.5705 96.3656C56.5705 96.3656 56.0647 100.286 56.4441 101.551C56.8235 102.815 57.7087 105.218 57.7087 105.218C57.7087 105.218 57.2028 106.988 57.8351 107.747C58.4675 108.506 60.238 111.288 60.238 111.288C60.238 111.288 60.4909 114.197 62.1349 115.462C63.779 116.726 71.4933 118.876 74.4019 117.232C77.3106 115.588 77.3106 115.588 77.3106 115.588C77.3106 115.588 78.7017 116.347 80.7251 114.323C82.7485 112.3 84.0131 110.024 84.6454 106.862C85.2778 103.7 85.0249 97.6302 79.0811 93.5833Z" fill="#FBD2CB"/>
<path d="M80.0927 100.286C80.0927 98.642 79.8398 96.3657 79.5869 93.9629C85.1513 98.0097 85.0248 103.701 84.3925 106.736C83.7601 109.897 82.4955 112.174 80.4721 114.197C78.4487 116.22 77.0576 115.462 77.0576 115.462C77.0576 115.462 77.0576 115.462 76.9312 115.588C77.9429 111.794 79.9663 104.459 80.0927 100.286Z" fill="url(#paint1_linear)"/>
<path d="M62.7671 87.5129C62.7671 87.5129 65.1699 87.5129 66.3081 87.26C67.4462 87.007 73.0107 86.3748 74.4018 87.7659C75.9193 89.2834 76.8046 92.0656 76.931 92.9508C77.0575 93.8361 79.2074 94.8478 79.4603 95.8596C79.7132 96.9977 80.219 98.0094 80.5984 99.7799C80.8514 101.55 81.6102 105.724 81.6102 107.874C81.6102 110.023 80.472 111.035 79.5867 112.426C78.7015 113.817 77.0575 115.461 76.4252 115.588C75.7928 115.714 66.8139 105.471 66.3081 104.585C65.8022 103.7 62.5142 96.8712 62.5142 96.8712L63.02 90.9274C63.02 90.9274 60.9966 89.0305 60.9966 88.7775C60.9966 88.5246 62.7671 87.5129 62.7671 87.5129Z" fill="#F8B4AA"/>
<path d="M78.8282 104.206C78.8282 104.206 76.5519 108.885 72.505 109.138C68.4582 109.391 59.9851 111.288 59.9851 111.288C59.9851 111.288 60.238 114.197 61.8821 115.461C63.6526 116.726 66.5612 117.232 66.5612 117.232C69.3434 117.864 72.505 118.244 74.149 117.232C77.0577 115.588 77.0577 115.588 77.0577 115.588C77.0577 115.588 77.1842 115.588 77.3106 115.714C78.3223 113.691 79.7134 110.909 80.2193 109.265C81.1045 106.609 78.8282 104.206 78.8282 104.206Z" fill="#FBD2CB"/>
<path d="M57.4558 105.091C57.4558 105.091 74.9078 101.55 76.5519 99.4006C78.1959 97.2507 79.0811 98.3888 79.334 98.6418C79.5869 98.8947 81.4839 103.321 79.5869 106.735C77.69 110.15 70.9874 113.059 59.8586 111.162" fill="#FBD2CB"/>
<path d="M57.4558 105.091C57.4558 105.091 68.7111 106.229 71.2403 105.597C73.7696 104.965 78.4488 102.056 79.0811 98.1357C79.7134 94.3418 76.0459 93.583 76.0459 93.583C76.0459 93.583 60.9968 98.3886 56.4441 96.9975" fill="#FBD2CB"/>
<path d="M62.135 87.1333C62.135 87.1333 65.1701 88.6509 68.3317 88.0186C71.4933 87.3862 74.6549 87.3862 75.6666 90.042C76.6783 92.6977 75.6666 94.7211 73.5167 95.7328C71.2404 96.7445 67.32 98.6415 60.238 96.871" fill="#FBD2CB"/>
<path fill-rule="evenodd" clip-rule="evenodd" d="M60.4239 94.7842L60.238 95.7383C67.115 97.4575 71.0107 95.7186 73.3148 94.6901C73.3835 94.6594 73.4508 94.6294 73.5167 94.6001C75.2514 93.7838 76.2451 92.3088 76.0328 90.3745C75.8628 91.8192 74.9388 92.931 73.5167 93.6002C73.4508 93.6295 73.3835 93.6596 73.3148 93.6902C71.0315 94.7094 67.1853 96.4263 60.4239 94.7842Z" fill="#F8B4AA"/>
<path fill-rule="evenodd" clip-rule="evenodd" d="M62.1859 101.41L62 102.364C68.8769 104.083 72.7727 102.345 75.0768 101.316C75.1455 101.285 75.2128 101.255 75.2787 101.226C77.0133 100.41 78.007 98.9348 77.7947 97.0005C77.6248 98.4452 76.7007 99.557 75.2787 100.226C75.2128 100.256 75.1455 100.286 75.0768 100.316C72.7935 101.335 68.9472 103.052 62.1859 101.41Z" fill="#F8B4AA"/>
<path fill-rule="evenodd" clip-rule="evenodd" d="M63.1859 108.41L63 109.364C69.8769 111.083 73.7727 109.345 76.0768 108.316C76.1455 108.285 76.2128 108.255 76.2787 108.226C78.0133 107.41 79.007 105.935 78.7947 104C78.6248 105.445 77.7007 106.557 76.2787 107.226C76.2128 107.256 76.1455 107.286 76.0768 107.316C73.7935 108.335 69.9472 110.052 63.1859 108.41Z" fill="#F8B4AA"/>
<path d="M66.4346 71.705C66.1817 70.8198 63.7788 68.9228 61.6289 68.5435C62.1348 70.4404 63.02 73.7285 64.7905 74.7402C66.0551 75.6254 67.6992 75.8783 68.9639 76.1313C67.5728 74.3608 66.6875 72.5903 66.4346 71.705Z" fill="#F8B4AA"/>
<path d="M137.303 79.5454C137.303 79.5454 156.02 100.538 157.158 111.794C158.296 123.049 139.453 107.241 139.453 107.241L137.303 79.5454Z" fill="#F9CBC3"/>
<path d="M151.846 93.5829C151.846 93.5829 154.249 85.1098 157.411 82.0747C160.572 78.9131 163.987 73.6017 164.493 71.8312C164.999 70.0607 173.345 65.0021 172.46 73.2222C171.701 81.4424 167.149 85.3627 167.149 85.3627C167.149 85.3627 168.793 86.5009 169.551 86.8803C170.31 87.2597 173.978 87.7656 174.357 90.2948C174.736 92.8241 174.357 96.3651 174.357 96.3651C174.357 96.3651 174.863 100.285 174.483 101.55C174.104 102.815 173.219 105.218 173.219 105.218C173.219 105.218 173.725 106.988 173.092 107.747C172.46 108.506 170.69 111.288 170.69 111.288C170.69 111.288 170.437 114.196 168.793 115.461C167.149 116.726 159.434 118.876 156.526 117.232C153.617 115.588 153.617 115.588 153.617 115.588C153.617 115.588 152.226 116.346 150.202 114.323C148.179 112.299 146.914 110.023 146.282 106.862C145.65 103.7 145.903 97.6297 151.846 93.5829Z" fill="#FBD2CB"/>
<path d="M150.835 100.286C150.835 98.6416 151.088 96.3652 151.341 93.9624C145.776 98.0092 145.903 103.7 146.535 106.735C147.167 109.897 148.432 112.173 150.455 114.197C152.479 116.22 153.87 115.461 153.87 115.461C153.87 115.461 153.87 115.461 153.996 115.588C152.985 111.794 150.961 104.459 150.835 100.286Z" fill="url(#paint2_linear)"/>
<path d="M168.16 87.5124C168.16 87.5124 165.757 87.5124 164.619 87.2595C163.481 87.0066 157.917 86.3743 156.526 87.7654C155.008 89.2829 154.123 92.0651 153.996 92.9503C153.87 93.8356 151.72 94.8474 151.467 95.8591C151.214 96.9972 150.708 98.0089 150.329 99.7794C150.076 101.55 149.317 105.723 149.317 107.873C149.317 110.023 150.455 111.035 151.341 112.426C152.226 113.817 153.87 115.461 154.502 115.587C155.135 115.714 164.113 105.47 164.619 104.585C165.125 103.7 168.413 96.8708 168.413 96.8708L167.907 90.927C167.907 90.927 169.931 89.03 169.931 88.7771C169.931 88.5241 168.16 87.5124 168.16 87.5124Z" fill="#F8B4AA"/>
<path d="M152.099 104.206C152.099 104.206 154.376 108.885 158.422 109.138C162.469 109.391 170.942 111.288 170.942 111.288C170.942 111.288 170.689 114.196 169.045 115.461C167.275 116.726 164.366 117.231 164.366 117.231C161.584 117.864 158.422 118.243 156.778 117.231C153.87 115.587 153.87 115.587 153.87 115.587C153.87 115.587 153.743 115.587 153.617 115.714C152.605 113.69 151.214 110.908 150.708 109.264C149.823 106.608 152.099 104.206 152.099 104.206Z" fill="#FBD2CB"/>
<path d="M173.472 105.091C173.472 105.091 156.02 101.55 154.376 99.4001C152.732 97.2502 151.846 98.3883 151.593 98.6413C151.341 98.8942 149.444 103.32 151.341 106.735C153.238 110.149 159.94 113.058 171.069 111.161" fill="#FBD2CB"/>
<path d="M173.472 105.091C173.472 105.091 162.216 106.229 159.687 105.597C157.158 104.964 152.479 102.056 151.846 98.1353C151.214 94.3413 154.882 93.5825 154.882 93.5825C154.882 93.5825 169.931 98.3882 174.483 96.9971" fill="#FBD2CB"/>
<path d="M168.792 87.1328C168.792 87.1328 165.757 88.6504 162.596 88.0181C159.434 87.3858 156.273 87.3857 155.261 90.0415C154.249 92.6972 155.261 94.7206 157.411 95.7323C159.687 96.744 163.607 98.641 170.689 96.8705" fill="#FBD2CB"/>
<path fill-rule="evenodd" clip-rule="evenodd" d="M170.504 94.7838L170.689 95.7378C163.813 97.457 159.917 95.7181 157.613 94.6896C157.544 94.6589 157.477 94.6289 157.411 94.5996C155.676 93.7833 154.682 92.3083 154.895 90.374C155.065 91.8187 155.989 92.9306 157.411 93.5998C157.477 93.629 157.544 93.6591 157.613 93.6897C159.896 94.7089 163.742 96.4258 170.504 94.7838Z" fill="#F8B4AA"/>
<path fill-rule="evenodd" clip-rule="evenodd" d="M168.742 101.41L168.927 102.364C162.051 104.083 158.155 102.344 155.851 101.316C155.782 101.285 155.715 101.255 155.649 101.226C153.914 100.409 152.92 98.9343 153.133 97C153.303 98.4447 154.227 99.5565 155.649 100.226C155.715 100.255 155.782 100.285 155.851 100.316C158.134 101.335 161.98 103.052 168.742 101.41Z" fill="#F8B4AA"/>
<path fill-rule="evenodd" clip-rule="evenodd" d="M167.742 108.41L167.927 109.364C161.051 111.083 157.155 109.344 154.851 108.316C154.782 108.285 154.715 108.255 154.649 108.226C152.914 107.409 151.92 105.934 152.133 104C152.303 105.445 153.227 106.557 154.649 107.226C154.715 107.255 154.782 107.285 154.851 107.316C157.134 108.335 160.98 110.052 167.742 108.41Z" fill="#F8B4AA"/>
<path d="M164.493 71.7046C164.746 70.8193 167.149 68.9224 169.298 68.543C168.793 70.4399 167.907 73.728 166.137 74.7397C164.872 75.625 163.228 75.8779 161.964 76.1308C163.355 74.3603 164.24 72.5898 164.493 71.7046Z" fill="#F8B4AA"/>
<path d="M108.421 70.6933L106.777 76.5106L115.882 88.9041L126.252 79.7987L123.596 76.0048L121.067 70.314L108.421 70.6933Z" fill="#F8B8AE"/>
<path d="M153.442 169.208C102.603 168.449 100.959 145.939 79.8398 143.915C81.2309 131.648 83.2544 117.611 85.4043 105.723C87.6806 92.9505 86.5424 90.4212 90.8422 84.0981C91.8539 81.5688 92.8656 79.9248 94.0038 79.5454C99.8211 77.0161 105.133 76.3838 106.777 76.1309C106.903 76.1309 107.03 76.1309 107.03 76.1309C107.156 76.1309 107.282 76.1309 107.282 76.1309C109.053 79.7983 114.617 80.9365 115.376 81.063C116.135 80.9365 121.826 79.6718 123.47 76.1309C123.47 76.1309 123.596 76.1309 123.723 76.1309C123.723 76.1309 123.849 76.1309 124.102 76.1309C125.746 76.2573 130.931 77.0161 136.875 79.5454C137.887 79.9248 138.898 81.5688 140.036 84.0981C143.325 92.3182 144.716 101.677 145.474 105.723C148.889 124.314 151.671 148.215 152.809 162C153.062 163.897 153.315 165.794 153.442 167.438C153.315 168.07 153.442 168.576 153.442 169.208Z" fill="#1BAA56"/>
<path fill-rule="evenodd" clip-rule="evenodd" d="M77.4371 50.459C73.6432 49.0679 70.8611 45.274 70.8611 40.8478C70.8611 37.0539 72.8845 33.7658 75.7931 31.9953C75.6667 30.8572 75.5402 29.8454 75.5402 28.7073C75.5402 16.9461 85.7838 7.46138 98.8095 6.82906C101.086 2.78223 105.639 0 111.076 0C115.882 0 120.182 2.27634 122.585 5.69086C123.849 5.5644 125.114 5.438 126.505 5.438C127.264 5.438 127.896 5.43797 128.655 5.56443C130.299 4.29979 132.196 3.66747 134.346 3.66747C139.151 3.66747 143.198 7.33493 143.957 12.1406C148.004 15.808 150.533 20.6136 150.913 26.0515C155.971 27.1897 159.765 31.8688 159.765 37.5597C159.765 43.2506 155.971 47.9298 150.913 49.0679C151.292 50.2061 151.545 51.3443 151.545 52.6089C151.545 58.2998 147.119 62.8524 141.681 62.8524C141.554 62.8524 141.301 62.8524 141.175 62.8524C139.278 66.6463 135.484 69.1756 131.184 69.1756C124.987 69.1756 119.929 63.8641 119.929 57.4145C119.929 54.2529 121.194 51.3442 123.091 49.1944C119.929 48.815 117.02 47.9297 114.365 46.6651C112.468 47.9297 110.444 48.815 108.168 49.5737C109.306 51.3442 109.812 53.4941 109.812 55.7705C109.812 62.2201 104.753 67.5316 98.5566 67.5316C95.0156 67.5316 91.7275 65.7611 89.7041 63.1054C88.8189 63.3583 87.8072 63.6112 86.669 63.6112C81.2311 63.6112 76.8048 59.0585 76.8048 53.3677C77.1842 52.2295 77.3107 51.3442 77.4371 50.459Z" fill="#404040"/>
<path d="M88.4394 13.6582C90.2098 13.6582 91.8539 14.417 92.9921 15.5552C94.1303 16.6933 94.889 18.3373 94.889 20.2342C94.889 22.0047 94.1303 23.6488 92.9921 24.9134C91.8539 26.0516 90.2098 26.8104 88.4394 26.8104C86.6689 26.8104 85.0249 26.0516 83.8867 24.9134C82.7485 23.7752 81.9897 22.1312 81.9897 20.2342C81.9897 18.4638 82.7485 16.8198 83.8867 15.5552C85.0249 14.417 86.5424 13.6582 88.4394 13.6582ZM91.7275 16.8198C90.8422 15.9345 89.704 15.4286 88.4394 15.4286C87.1747 15.4286 86.0366 15.9345 85.1513 16.8198C84.2661 17.705 83.7602 18.8431 83.7602 20.2342C83.7602 21.4989 84.2661 22.7635 85.1513 23.6488C86.0366 24.534 87.1747 25.0399 88.4394 25.0399C89.704 25.0399 90.8422 24.534 91.7275 23.6488C92.6127 22.7635 93.1185 21.6253 93.1185 20.2342C93.1185 18.8431 92.6127 17.705 91.7275 16.8198Z" fill="#1BAA56"/>
<path fill-rule="evenodd" clip-rule="evenodd" d="M115.123 74.6133C127.264 74.6133 137.254 64.6227 137.254 52.4822V43.3769C137.254 37.3066 132.322 32.3745 126.252 32.3745H103.994C97.9242 32.3745 92.9922 37.3066 92.9922 43.3769V52.4822C92.9922 64.6227 102.983 74.6133 115.123 74.6133Z" fill="#FBD2CB"/>
<path fill-rule="evenodd" clip-rule="evenodd" d="M117.526 44.1357L126.631 42.8711C127.011 42.8711 127.39 43.124 127.39 43.5034C127.39 43.8828 127.137 44.2622 126.758 44.2622L117.652 45.5268C117.273 45.5268 116.894 45.2739 116.894 44.8945C116.894 44.6416 117.146 44.2622 117.526 44.1357Z" fill="#404040"/>
<path d="M137.254 45.0209V43.2504C137.254 37.1801 132.322 32.248 126.252 32.248H103.994C97.9242 32.248 92.9922 37.1801 92.9922 43.2504V46.2855C92.9922 46.2855 97.1655 38.0654 100.074 37.5595C103.109 36.9272 105.006 38.4448 106.903 37.5595C108.8 36.6743 122.458 36.9273 123.343 37.686C124.229 38.4448 127.264 37.4331 128.781 36.8008C128.908 36.9272 129.667 42.9975 137.254 45.0209Z" fill="url(#paint3_linear)"/>
<path fill-rule="evenodd" clip-rule="evenodd" d="M112.214 44.1357L103.109 42.8711C102.73 42.8711 102.35 43.124 102.35 43.5034C102.35 43.8828 102.603 44.2622 102.983 44.2622L112.088 45.5268C112.467 45.5268 112.847 45.2739 112.847 44.8945C112.847 44.6416 112.594 44.2622 112.214 44.1357Z" fill="#404040"/>
<path fill-rule="evenodd" clip-rule="evenodd" d="M127.896 54.7588C130.299 54.7588 132.322 56.6557 132.322 58.9321C132.322 61.2084 130.299 63.1054 127.896 63.1054C125.493 63.1054 123.47 61.2084 123.47 58.9321C123.47 56.6557 125.493 54.7588 127.896 54.7588Z" fill="#E51685" fill-opacity="0.2"/>
<path fill-rule="evenodd" clip-rule="evenodd" d="M101.971 54.7588C104.374 54.7588 106.397 56.6557 106.397 58.9321C106.397 61.2084 104.374 63.1054 101.971 63.1054C99.5683 63.1054 97.5449 61.2084 97.5449 58.9321C97.5449 56.6557 99.5683 54.7588 101.971 54.7588Z" fill="#E51685" fill-opacity="0.2"/>
<path fill-rule="evenodd" clip-rule="evenodd" d="M103.489 26.1777H125.746C127.137 26.1777 128.275 27.3159 128.275 28.707V34.3979C128.275 35.789 127.137 36.9271 125.746 36.9271H103.489C102.097 36.9271 100.959 35.789 100.959 34.3979V28.707C100.959 27.3159 102.097 26.1777 103.489 26.1777Z" fill="#1BAA56"/>
<path d="M81.9897 35.0303C83.7602 35.0303 85.4042 35.7891 86.5424 36.9272C87.6806 38.0654 88.4393 39.7094 88.4393 41.6064C88.4393 43.3769 87.6806 45.0209 86.5424 46.2856C85.4042 47.4237 83.7602 48.1825 81.9897 48.1825C80.2192 48.1825 78.5752 47.4237 77.437 46.2856C76.2988 45.1474 75.54 43.5033 75.54 41.6064C75.54 39.8359 76.2988 38.1919 77.437 36.9272C78.5752 35.7891 80.2192 35.0303 81.9897 35.0303ZM85.2777 38.3184C84.3925 37.4331 83.2544 36.9272 81.9897 36.9272C80.7251 36.9272 79.5869 37.4331 78.7016 38.3184C77.8164 39.2036 77.3106 40.3417 77.3106 41.7328C77.3106 43.1239 77.8164 44.2621 78.7016 45.1474C79.5869 46.0326 80.7251 46.5385 81.9897 46.5385C83.2544 46.5385 84.3925 46.0326 85.2777 45.1474C86.163 44.2621 86.6689 43.1239 86.6689 41.7328C86.6689 40.3417 86.163 39.2036 85.2777 38.3184Z" fill="#1BAA56"/>
<path d="M149.142 31.7422C150.912 31.7422 152.556 32.501 153.695 33.6391C154.833 34.7773 155.592 36.4214 155.592 38.3183C155.592 40.0888 154.833 41.7328 153.695 42.9974C152.556 44.1356 150.912 44.8944 149.142 44.8944C147.371 44.8944 145.727 44.1356 144.589 42.9974C143.451 41.8592 142.692 40.2153 142.692 38.3183C142.692 36.5478 143.451 34.9038 144.589 33.6391C145.727 32.501 147.371 31.7422 149.142 31.7422ZM152.43 34.9038C151.545 34.0185 150.407 33.5126 149.142 33.5126C147.877 33.5126 146.739 34.0185 145.854 34.9038C144.969 35.789 144.463 36.9272 144.463 38.3183C144.463 39.7094 144.969 40.8475 145.854 41.7328C146.739 42.618 147.877 43.1239 149.142 43.1239C150.407 43.1239 151.545 42.618 152.43 41.7328C153.315 40.8475 153.821 39.7094 153.821 38.3183C153.821 37.0537 153.315 35.789 152.43 34.9038Z" fill="#1BAA56"/>
<path d="M134.093 7.71436C135.863 7.71436 137.507 8.47314 138.645 9.61131C139.784 10.7495 140.542 12.3935 140.542 14.2905C140.542 16.061 139.784 17.7049 138.645 18.9696C137.507 20.1077 135.863 20.8665 134.093 20.8665C132.322 20.8665 130.678 20.1077 129.54 18.9696C128.402 17.8314 127.643 16.1874 127.643 14.2905C127.643 12.52 128.402 10.8759 129.54 9.61131C130.678 8.47314 132.322 7.71436 134.093 7.71436ZM137.381 10.8759C136.496 9.9907 135.357 9.4848 134.093 9.4848C132.828 9.4848 131.69 9.9907 130.805 10.8759C129.919 11.7612 129.414 12.8994 129.414 14.2905C129.414 15.5551 129.919 16.8197 130.805 17.7049C131.69 18.5902 132.828 19.0961 134.093 19.0961C135.357 19.0961 136.496 18.5902 137.381 17.7049C138.266 16.8197 138.772 15.6816 138.772 14.2905C138.772 12.8994 138.266 11.7612 137.381 10.8759Z" fill="#1BAA56"/>
<path fill-rule="evenodd" clip-rule="evenodd" d="M104.627 22.8901H124.482V34.6512C124.482 36.6747 122.838 38.3187 120.814 38.3187H108.294C106.271 38.3187 104.627 36.6747 104.627 34.6512V22.8901Z" fill="#404040"/>
<path fill-rule="evenodd" clip-rule="evenodd" d="M90.0834 47.5503C93.7508 47.5503 96.6595 50.5854 96.6595 54.2528C96.6595 57.9203 93.7508 60.9554 90.0834 60.9554C86.4159 60.9554 83.5073 57.9203 83.5073 54.2528C83.5073 50.5854 86.4159 47.5503 90.0834 47.5503Z" fill="#404040"/>
<path fill-rule="evenodd" clip-rule="evenodd" d="M139.784 47.6768C143.451 47.6768 146.36 50.7119 146.36 54.3793C146.36 58.0468 143.451 61.0819 139.784 61.0819C136.116 61.0819 133.208 58.0468 133.208 54.3793C133.208 50.7119 136.116 47.6768 139.784 47.6768Z" fill="#404040"/>
<path fill-rule="evenodd" clip-rule="evenodd" d="M136.243 28.2017C139.91 28.2017 142.819 31.2368 142.819 34.9042C142.819 38.5717 139.91 41.6068 136.243 41.6068C132.575 41.6068 129.667 38.5717 129.667 34.9042C129.667 31.1103 132.575 28.2017 136.243 28.2017Z" fill="#404040"/>
<path fill-rule="evenodd" clip-rule="evenodd" d="M92.9919 27.9487C96.28 27.9487 99.0622 30.7309 99.0622 34.019C99.0622 37.4335 96.4065 40.0892 92.9919 40.0892C89.7039 40.0892 86.9216 37.307 86.9216 34.019C87.0481 30.7309 89.7039 27.9487 92.9919 27.9487Z" fill="#404040"/>
<path d="M118.79 50.206C119.043 50.206 119.296 50.0795 119.296 49.7002C119.296 49.4472 119.549 49.1943 119.676 48.9413C120.308 48.4355 121.32 48.4355 121.952 49.1943C122.205 49.4472 122.584 49.4472 122.711 49.1943C122.964 48.9413 122.964 48.562 122.711 48.4355C121.573 47.2974 119.929 47.1709 118.79 48.1826C118.411 48.562 118.158 48.9414 118.032 49.4472C118.158 49.8266 118.411 50.206 118.79 50.206C118.664 50.206 118.79 50.206 118.79 50.206Z" fill="#404040"/>
<path d="M111.709 50.206C111.456 50.206 111.203 50.0795 111.203 49.7002C111.203 49.4472 110.95 49.1943 110.823 48.9413C110.191 48.4355 109.179 48.4355 108.547 49.1943C108.294 49.4472 107.915 49.4472 107.788 49.1943C107.535 48.9413 107.535 48.562 107.788 48.4355C108.927 47.2974 110.571 47.1709 111.709 48.1826C112.088 48.562 112.341 48.9414 112.467 49.4472C112.341 49.8266 112.215 50.206 111.709 50.206C111.835 50.206 111.835 50.206 111.709 50.206Z" fill="#404040"/>
<path d="M110.571 60.3232C110.571 60.3232 111.835 60.9556 115.376 60.9556C118.917 60.9556 119.929 60.3232 119.929 60.3232C119.929 60.3232 120.688 66.8994 116.135 66.8994C111.203 66.8994 110.571 64.2436 110.571 60.3232Z" fill="#E51685" fill-opacity="0.2"/>
<path d="M115.25 60.9556C111.709 60.9556 110.444 60.3232 110.444 60.3232C110.444 60.9556 110.444 61.4614 110.444 61.9673C111.835 62.4731 113.353 62.7261 114.997 62.7261C116.767 62.7261 118.285 62.4731 119.676 61.9673C119.676 61.082 119.676 60.3232 119.676 60.3232C119.676 60.3232 118.791 60.9556 115.25 60.9556Z" fill="white"/>
<path d="M64.1582 64.37C59.0997 64.37 55.0529 68.4169 55.0529 73.4754C55.0529 68.4169 51.0061 64.37 45.9475 64.37C51.0061 64.37 55.0529 60.3232 55.0529 55.2646C55.0529 60.3232 59.0997 64.37 64.1582 64.37Z" fill="#FAD686"/>
<path d="M51.2592 73.3491C49.4887 74.1078 48.7299 76.1313 49.4887 77.9018C48.7299 76.1313 46.7065 75.3725 44.936 76.1313C46.7065 75.3725 47.4653 73.3491 46.7065 71.5786C47.4653 73.3491 49.4887 74.1078 51.2592 73.3491Z" fill="#FAD686"/>
<path d="M185.437 73.0962C183.666 73.855 182.908 75.8784 183.666 77.6489C182.908 75.8784 180.884 75.1196 179.114 75.8783C180.884 75.1196 181.643 73.0962 180.884 71.3257C181.643 73.0962 183.666 73.855 185.437 73.0962Z" fill="#FAD686"/>
<path d="M182.022 65.1288C178.355 65.1288 175.446 68.0375 175.446 71.7049C175.446 68.0375 172.538 65.1288 168.87 65.1288C172.538 65.1288 175.446 62.2202 175.446 58.5527C175.446 62.2202 178.481 65.1288 182.022 65.1288Z" fill="#FAD686"/>
<defs>
<linearGradient id="paint0_linear" x1="37.2793" y1="148.329" x2="37.2793" y2="116.855" gradientUnits="userSpaceOnUse">
<stop stop-color="#EEFFF3"/>
<stop offset="0.2109" stop-color="#E9FEF0"/>
<stop offset="0.4658" stop-color="#DAFCE5"/>
<stop offset="0.7423" stop-color="#C2F9D5"/>
<stop offset="0.8614" stop-color="#B5F7CC"/>
</linearGradient>
<linearGradient id="paint1_linear" x1="113.602" y1="101.364" x2="39.7542" y2="108.614" gradientUnits="userSpaceOnUse">
<stop stop-color="#FBE1DC"/>
<stop offset="0.1838" stop-color="#FBDCD7"/>
<stop offset="0.4058" stop-color="#F9CFC8"/>
<stop offset="0.6478" stop-color="#F7B9B0"/>
<stop offset="0.9022" stop-color="#F59A8E"/>
<stop offset="0.954" stop-color="#F49386"/>
</linearGradient>
<linearGradient id="paint2_linear" x1="117.325" y1="101.364" x2="191.173" y2="108.613" gradientUnits="userSpaceOnUse">
<stop stop-color="#FBE1DC"/>
<stop offset="0.1838" stop-color="#FBDCD7"/>
<stop offset="0.4058" stop-color="#F9CFC8"/>
<stop offset="0.6478" stop-color="#F7B9B0"/>
<stop offset="0.9022" stop-color="#F59A8E"/>
<stop offset="0.954" stop-color="#F49386"/>
</linearGradient>
<linearGradient id="paint3_linear" x1="115.124" y1="70.153" x2="115.124" y2="22.1341" gradientUnits="userSpaceOnUse">
<stop stop-color="#FBE1DC"/>
<stop offset="0.1838" stop-color="#FBDCD7"/>
<stop offset="0.4058" stop-color="#F9CFC8"/>
<stop offset="0.6478" stop-color="#F7B9B0"/>
<stop offset="0.9022" stop-color="#F59A8E"/>
<stop offset="0.954" stop-color="#F49386"/>
</linearGradient>
</defs>
</svg>
